INDEX VERSION 1.126+/Users/litaoshen/Development/codes/software_engineering_project/SWEN_30007_Group_9/swen30007_group9/.metadata/.plugins/org.eclipse.jdt.core
<<<<<<< HEAD
3906307549.index
34995798.index
2479885428.index
564857940.index
1628266423.index
1377046166.index
3998698688.index
309618009.index
3374815733.index
370589496.index
1282566399.index
1032986403.index
2464557158.index
2152348779.index
3287367732.index
3100334118.index
3300763999.index
=======
3042751394.index
1377046166.index
2464557158.index
11823683.index
2018799858.index
1628266423.index
370589496.index
1282566399.index
3998698688.index
3300763999.index
3374815733.index
4196397948.index
1032986403.index
309618009.index
>>>>>>> terry
