what,kind,bundleId,bundleVersion,description,time
java.vm.vendor,sysinfo,,,"Apple Inc.",1377358914178
java.vm.version,sysinfo,,,"20.51-b01-456",1377358914178
started,bundle,org.eclipse.m2e.usagedata,1.0.200.20111228-1245,"org.eclipse.m2e.usagedata",1377358914181
started,bundle,org.eclipse.wb.discovery.ui,1.5.2.r37x201303061516,"org.eclipse.wb.discovery.ui",1377358915317
started,bundle,net.sourceforge.vrapper.eclipse,0.34.1,"net.sourceforge.vrapper.eclipse",1377358915324
activated,view,org.eclipse.ui.console,3.5.100.v20111007_r372,"org.eclipse.ui.console.ConsoleView",1377358915412
executed,command,net.sourceforge.vrapper.eclipse,0.34.1,"net.sourceforge.vrapper.eclipse.commands.toggle",1377358915680
opened,view,org.eclipse.ui.ide,3.7.0.v20110928-1505,"org.eclipse.ui.views.ProblemView",1377358918326
started,bundle,com.google.appengine.eclipse.core,3.2.2.v201303261859-rel-r37,"com.google.appengine.eclipse.core",1377358920508
started,bundle,com.google.gdt.eclipse.appengine.rpc,3.2.2.v201303261859-rel-r37,"com.google.gdt.eclipse.appengine.rpc",1377358920512
started,bundle,org.eclipse.jdt.apt.core,3.3.500.v20110420-1015,"org.eclipse.jdt.apt.core",1377358920535
started,bundle,org.eclipse.jdt.apt.pluggable.core,1.0.400.v20110305-1450,"org.eclipse.jdt.apt.pluggable.core",1377358920541
activated,workbench,org.eclipse.ui.workbench,3.7.1.v20120104-1859,"",1377359025568
activated,editor,com.android.ide.eclipse.adt,22.0.1.v201305230001--685705,"com.android.ide.eclipse.editors.CommonXmlEditor",1377359025599
activated,view,org.eclipse.jdt.ui,3.7.2.v20120109-1427,"org.eclipse.jdt.ui.PackageExplorer",1377359033316
started,bundle,org.eclipse.compare,3.5.202.R37x_v20111109-0800,"org.eclipse.compare",1377359033830
started,bundle,org.eclipse.jdt.junit.core,3.7.0.v20110928-1453,"org.eclipse.jdt.junit.core",1377359035106
started,bundle,org.eclipse.cdt.debug.core,7.1.0.201202111925,"org.eclipse.cdt.debug.core",1377359035134
started,bundle,org.eclipse.cdt.debug.ui,7.1.2.201202111925,"org.eclipse.cdt.debug.ui",1377359035139
deactivated,workbench,org.eclipse.ui.workbench,3.7.1.v20120104-1859,"",1377359038863
activated,workbench,org.eclipse.ui.workbench,3.7.1.v20120104-1859,"",1377359053494
started,bundle,org.eclipse.php.core,3.0.1.v201201110400,"org.eclipse.php.core",1377359057964
started,bundle,org.eclipse.dltk.ruby.core,3.0.0.v20110423,"org.eclipse.dltk.ruby.core",1377359057977
deactivated,workbench,org.eclipse.ui.workbench,3.7.1.v20120104-1859,"",1377359070394
activated,workbench,org.eclipse.ui.workbench,3.7.1.v20120104-1859,"",1377359074883
executed,command,org.eclipse.egit.ui,1.3.0.201202151440-r,"org.eclipse.egit.ui.team.Pull",1377359083633
deactivated,workbench,org.eclipse.ui.workbench,3.7.1.v20120104-1859,"",1377359083944
activated,workbench,org.eclipse.ui.workbench,3.7.1.v20120104-1859,"",1377359089850
deactivated,workbench,org.eclipse.ui.workbench,3.7.1.v20120104-1859,"",1377359094691
started,bundle,org.eclipse.core.variables,3.2.500.v20110928-1503,"org.eclipse.core.variables",1377359152475
activated,workbench,org.eclipse.ui.workbench,3.7.1.v20120104-1859,"",1377359169722
executed,command,org.eclipse.ui,3.7.0.v20110928-1505,"org.eclipse.ui.window.preferences",1377359169774
activated,editor,com.android.ide.eclipse.adt,22.0.1.v201305230001--685705,"com.android.ide.eclipse.editors.CommonXmlEditor",1377359171323
activated,view,org.eclipse.jdt.ui,3.7.2.v20120109-1427,"org.eclipse.jdt.ui.PackageExplorer",1377359179812
started,bundle,org.eclipse.wst.jsdt.core,1.1.102.v201111090634,"org.eclipse.wst.jsdt.core",1377359195388
started,bundle,org.eclipse.wst.jsdt.manipulation,1.0.300.v201104272153,"org.eclipse.wst.jsdt.manipulation",1377359195421
started,bundle,org.eclipse.wst.jsdt.ui,1.1.102.v201201131900,"org.eclipse.wst.jsdt.ui",1377359195425
started,bundle,org.eclipse.egit.mylyn.ui,1.3.0.201202151440-r,"org.eclipse.egit.mylyn.ui",1377359196108
deactivated,workbench,org.eclipse.ui.workbench,3.7.1.v20120104-1859,"",1377359196346
activated,workbench,org.eclipse.ui.workbench,3.7.1.v20120104-1859,"",1377359204235
executed,command,org.eclipse.egit.ui,1.3.0.201202151440-r,"org.eclipse.egit.ui.team.Commit",1377359204288
activated,editor,com.android.ide.eclipse.adt,22.0.1.v201305230001--685705,"com.android.ide.eclipse.editors.CommonXmlEditor",1377359205078
activated,view,org.eclipse.jdt.ui,3.7.2.v20120109-1427,"org.eclipse.jdt.ui.PackageExplorer",1377359206773
closed,editor,com.android.ide.eclipse.adt,22.0.1.v201305230001--685705,"com.android.ide.eclipse.editors.CommonXmlEditor",1377359206773
executed,command,org.eclipse.ui,3.7.0.v20110928-1505,"org.eclipse.ui.file.close",1377359206802
deactivated,workbench,org.eclipse.ui.workbench,3.7.1.v20120104-1859,"",1377359207788
activated,workbench,org.eclipse.ui.workbench,3.7.1.v20120104-1859,"",1377359208952
closed,workbench,org.eclipse.ui.workbench,3.7.1.v20120104-1859,"",1377359209101
stopped,bundle,org.eclipse.m2e.logback.configuration,1.0.200.20111228-1245,"org.eclipse.m2e.logback.configuration",1377359209907
stopped,bundle,com.google.gdt.eclipse.maven.e37,3.2.2.v201303261859-rel-r37,"com.google.gdt.eclipse.maven.e37",1377359209908
stopped,bundle,org.eclipse.m2e.discovery,1.0.200.20111228-1245,"org.eclipse.m2e.discovery",1377359209908
stopped,bundle,org.eclipse.m2e.refactoring,1.0.200.20111228-1245,"org.eclipse.m2e.refactoring",1377359209908
stopped,bundle,org.eclipse.m2e.editor,1.0.200.20111228-1245,"org.eclipse.m2e.editor",1377359209908
stopped,bundle,org.eclipse.m2e.editor.xml,1.0.200.20111228-1245,"org.eclipse.m2e.editor.xml",1377359209909
stopped,bundle,org.eclipse.m2e.jdt,1.0.200.20111228-1245,"org.eclipse.m2e.jdt",1377359209909
stopped,bundle,org.eclipse.m2e.launching,1.0.200.20111228-1245,"org.eclipse.m2e.launching",1377359209909
stopped,bundle,org.eclipse.m2e.usagedata,1.0.200.20111228-1245,"org.eclipse.m2e.usagedata",1377359209909
stopped,bundle,com.google.appengine.eclipse.datatools,3.2.2.v201303261859-rel-r37,"com.google.appengine.eclipse.datatools",1377359209909
stopped,bundle,com.google.appengine.eclipse.webtools,3.2.2.v201303261859-rel-r37,"com.google.appengine.eclipse.webtools",1377359209910
stopped,bundle,com.google.gdt.eclipse.mobile.android,3.2.2.v201303261859-rel-r37,"com.google.gdt.eclipse.mobile.android",1377359209910
stopped,bundle,com.google.gdt.eclipse.appengine.swarm_backend,3.2.2.v201303261859-rel-r37,"com.google.gdt.eclipse.appengine.swarm_backend",1377359209910
stopped,bundle,com.google.gdt.eclipse.suite.ext,3.2.2.v201303261859-rel-r37,"com.google.gdt.eclipse.suite.ext",1377359209910
stopped,bundle,com.google.gdt.eclipse.appengine.swarm,3.2.2.v201303261859-rel-r37,"com.google.gdt.eclipse.appengine.swarm",1377359209910
stopped,bundle,com.google.gdt.eclipse.appengine.rpc,3.2.2.v201303261859-rel-r37,"com.google.gdt.eclipse.appengine.rpc",1377359209910
stopped,bundle,com.google.gdt.eclipse.gph.e36,3.2.2.v201303261859-rel-r37,"com.google.gdt.eclipse.gph.e36",1377359209911
stopped,bundle,com.google.gdt.eclipse.gph.hge,3.2.2.v201303261859-rel-r37,"com.google.gdt.eclipse.gph.hge",1377359209911
stopped,bundle,com.google.gdt.eclipse.gph.subclipse,3.2.2.v201303261859-rel-r37,"com.google.gdt.eclipse.gph.subclipse",1377359209911
stopped,bundle,com.google.gdt.eclipse.gph.subversive,3.2.2.v201303261859-rel-r37,"com.google.gdt.eclipse.gph.subversive",1377359209911
stopped,bundle,com.google.gdt.eclipse.gph,3.2.2.v201303261859-rel-r37,"com.google.gdt.eclipse.gph",1377359209911
stopped,bundle,com.google.gdt.eclipse.maven,3.2.2.v201303261859-rel-r37,"com.google.gdt.eclipse.maven",1377359209911
stopped,bundle,com.google.gdt.eclipse.suite,3.2.2.v201303261859-rel-r37,"com.google.gdt.eclipse.suite",1377359209911
stopped,bundle,com.google.gdt.eclipse.appsmarketplace,3.2.2.v201303261859-rel-r37,"com.google.gdt.eclipse.appsmarketplace",1377359209911
stopped,bundle,com.google.gdt.eclipse.managedapis,3.2.2.v201303261859-rel-r37,"com.google.gdt.eclipse.managedapis",1377359209911
stopped,bundle,com.google.appengine.eclipse.core,3.2.2.v201303261859-rel-r37,"com.google.appengine.eclipse.core",1377359209911
stopped,bundle,com.google.gdt.eclipse.login,3.2.2.v201303261859-rel-r37,"com.google.gdt.eclipse.login",1377359209912
stopped,bundle,com.google.gwt.eclipse.oophm,3.2.2.v201303261859-rel-r37,"com.google.gwt.eclipse.oophm",1377359209912
stopped,bundle,com.google.gwt.eclipse.core,3.2.2.v201303261859-rel-r37,"com.google.gwt.eclipse.core",1377359209917
stopped,bundle,com.google.gdt.eclipse.core,3.2.2.v201303261859-rel-r37,"com.google.gdt.eclipse.core",1377359209917
stopped,bundle,com.google.gdt.eclipse.platform,3.2.2.v201303261859-rel-r37,"com.google.gdt.eclipse.platform",1377359209918
stopped,bundle,com.google.gdt.eclipse.platform.e37,3.2.2.v201303261859-rel-r37,"com.google.gdt.eclipse.platform.e37",1377359209918
stopped,bundle,org.eclipse.cdt,8.0.2.201202111925,"org.eclipse.cdt",1377359209918
stopped,bundle,org.eclipse.cdt.doc.user,5.1.1.201202111925,"org.eclipse.cdt.doc.user",1377359209918
stopped,bundle,com.android.ide.eclipse.ndk,21.1.0.v201302060044-569685,"com.android.ide.eclipse.ndk",1377359209918
stopped,bundle,overlay.com.android.ide.eclipse.adt.overlay,22.0.1.v201305230001--685705,"overlay.com.android.ide.eclipse.adt.overlay",1377359209918
stopped,bundle,com.android.ide.eclipse.adt,22.0.1.v201305230001--685705,"com.android.ide.eclipse.adt",1377359209952
stopped,bundle,org.eclim.jdt,1.7.14,"org.eclim.jdt",1377359209952
stopped,bundle,org.eclipse.ui.cheatsheets,3.4.100.v20110425,"org.eclipse.ui.cheatsheets",1377359209952
stopped,bundle,org.eclipse.help.ui,3.5.101.r37_20110819,"org.eclipse.help.ui",1377359209953
stopped,bundle,org.eclipse.help.webapp,3.6.1.r37_20110929,"org.eclipse.help.webapp",1377359209953
stopped,bundle,org.eclipse.epp.mpc.ui,1.1.1.I20110907-0947,"org.eclipse.epp.mpc.ui",1377359209965
stopped,bundle,org.eclipse.epp.usagedata.ui,1.3.1.R201106061540,"org.eclipse.epp.usagedata.ui",1377359209965
stopped,bundle,org.eclipse.ui.intro.universal,3.2.500.v20110510,"org.eclipse.ui.intro.universal",1377359209965
stopped,bundle,org.eclipse.ui.intro,3.4.100.v20110425,"org.eclipse.ui.intro",1377359209965
stopped,bundle,org.eclipse.help.base,3.6.2.v201202080800,"org.eclipse.help.base",1377359209965
stopped,bundle,org.eclipse.equinox.http.jetty,2.0.100.v20110502,"org.eclipse.equinox.http.jetty",1377359209966
stopped,bundle,org.eclipse.m2e.core.ui,1.0.200.20111228-1245,"org.eclipse.m2e.core.ui",1377359209967
stopped,bundle,org.eclipse.m2e.core,1.0.200.20111228-1245,"org.eclipse.m2e.core",1377359209968
stopped,bundle,com.android.ide.eclipse.gldebugger,22.0.1.v201305230001--685705,"com.android.ide.eclipse.gldebugger",1377359209968
stopped,bundle,com.android.ide.eclipse.hierarchyviewer,22.0.1.v201305230001--685705,"com.android.ide.eclipse.hierarchyviewer",1377359209969
stopped,bundle,com.android.ide.eclipse.traceview,22.0.1.v201305230001--685705,"com.android.ide.eclipse.traceview",1377359209969
stopped,bundle,com.android.ide.eclipse.ddms,22.0.1.v201305230001--685705,"com.android.ide.eclipse.ddms",1377359209969
stopped,bundle,com.android.ide.eclipse.base,22.0.1.v201305230001--685705,"com.android.ide.eclipse.base",1377359209969
stopped,bundle,com.google.appengine.eclipse.sdkbundle,1.7.7,"com.google.appengine.eclipse.sdkbundle",1377359209969
stopped,bundle,com.google.gdt.eclipse.designer.UiBinder,3.1.2.r37x201303061530,"com.google.gdt.eclipse.designer.UiBinder",1377359209969
stopped,bundle,com.google.gdt.eclipse.designer.gpe,3.1.2.r37x201303061641,"com.google.gdt.eclipse.designer.gpe",1377359209970
stopped,bundle,com.google.gdt.eclipse.designer,3.1.2.r37x201303061530,"com.google.gdt.eclipse.designer",1377359209970
stopped,bundle,com.google.gdt.eclipse.designer.hosted.2_0.webkit,3.1.2.r37x201303061525,"com.google.gdt.eclipse.designer.hosted.2_0.webkit",1377359209970
stopped,bundle,com.google.gdt.eclipse.designer.hosted.2_0,3.1.2.r37x201303061525,"com.google.gdt.eclipse.designer.hosted.2_0",1377359209970
stopped,bundle,com.google.gdt.eclipse.designer.hosted.2_2.webkit,3.1.2.r37x201303061525,"com.google.gdt.eclipse.designer.hosted.2_2.webkit",1377359209970
stopped,bundle,com.google.gdt.eclipse.designer.hosted.2_2,3.1.2.r37x201303061525,"com.google.gdt.eclipse.designer.hosted.2_2",1377359209970
stopped,bundle,com.google.gdt.eclipse.designer.hosted,3.1.2.r37x201303061525,"com.google.gdt.eclipse.designer.hosted",1377359209970
stopped,bundle,com.google.gdt.eclipse.designer.hosted.2_0.super,3.1.2.r37x201303061525,"com.google.gdt.eclipse.designer.hosted.2_0.super",1377359209970
stopped,bundle,com.google.gdt.eclipse.designer.hosted.lib,3.1.2.r37x201303061525,"com.google.gdt.eclipse.designer.hosted.lib",1377359209971
stopped,bundle,com.google.gdt.eclipse.platform.shared,3.2.2.v201303261859-rel-r37,"com.google.gdt.eclipse.platform.shared",1377359209971
stopped,bundle,com.google.gwt.eclipse.sdkbundle,2.5.1,"com.google.gwt.eclipse.sdkbundle",1377359209971
stopped,bundle,org.eclipse.mylyn.ide.ant,3.8.3.v20130107-0100,"org.eclipse.mylyn.ide.ant",1377359209972
stopped,bundle,org.eclipse.ant.ui,3.5.101.v20120110-1739,"org.eclipse.ant.ui",1377359209989
stopped,bundle,org.eclipse.ant.launching,1.0.101.v20120110-1739,"org.eclipse.ant.launching",1377359209989
stopped,bundle,org.eclim.cdt,1.7.14,"org.eclim.cdt",1377359209989
stopped,bundle,org.eclipse.cdt.codan.checkers.ui,1.0.0.201202111925,"org.eclipse.cdt.codan.checkers.ui",1377359209990
stopped,bundle,org.eclipse.cdt.codan.checkers,1.0.1.201202111925,"org.eclipse.cdt.codan.checkers",1377359209990
stopped,bundle,org.eclipse.cdt.codan.ui.cxx,2.0.0.201202111925,"org.eclipse.cdt.codan.ui.cxx",1377359209990
stopped,bundle,org.eclipse.cdt.codan.core.cxx,1.0.0.201202111925,"org.eclipse.cdt.codan.core.cxx",1377359209990
stopped,bundle,org.eclipse.cdt.debug.mi.ui,6.1.1.201202111925,"org.eclipse.cdt.debug.mi.ui",1377359209990
stopped,bundle,org.eclipse.cdt.debug.mi.core,7.1.1.201202111925,"org.eclipse.cdt.debug.mi.core",1377359209990
stopped,bundle,org.eclipse.cdt.dsf.gdb.ui,2.2.1.201202111925,"org.eclipse.cdt.dsf.gdb.ui",1377359209990
stopped,bundle,org.eclipse.cdt.dsf.ui,2.2.1.201202111925,"org.eclipse.cdt.dsf.ui",1377359209990
stopped,bundle,org.eclipse.cdt.gdb.ui,7.0.0.201202111925,"org.eclipse.cdt.gdb.ui",1377359209991
stopped,bundle,org.eclipse.cdt.dsf.gdb,4.0.2.201202111925,"org.eclipse.cdt.dsf.gdb",1377359209991
stopped,bundle,org.eclipse.cdt.launch,7.0.0.201202111925,"org.eclipse.cdt.launch",1377359209991
stopped,bundle,org.eclipse.cdt.debug.ui,7.1.2.201202111925,"org.eclipse.cdt.debug.ui",1377359209992
stopped,bundle,org.eclipse.cdt.dsf,2.2.0.201202111925,"org.eclipse.cdt.dsf",1377359209992
stopped,bundle,org.eclipse.cdt.debug.core,7.1.0.201202111925,"org.eclipse.cdt.debug.core",1377359209992
stopped,bundle,org.eclipse.cdt.managedbuilder.ui,8.0.2.201202111925,"org.eclipse.cdt.managedbuilder.ui",1377359209992
stopped,bundle,org.eclipse.cdt.make.ui,7.1.2.201202111925,"org.eclipse.cdt.make.ui",1377359209993
stopped,bundle,org.eclipse.cdt.managedbuilder.gnu.ui,8.0.2.201202111925,"org.eclipse.cdt.managedbuilder.gnu.ui",1377359209993
stopped,bundle,org.eclipse.cdt.managedbuilder.core,8.0.2.201202111925,"org.eclipse.cdt.managedbuilder.core",1377359209997
stopped,bundle,org.eclipse.cdt.make.core,7.1.2.201202111925,"org.eclipse.cdt.make.core",1377359209997
stopped,bundle,org.eclipse.cdt.codan.ui,2.0.1.201202111925,"org.eclipse.cdt.codan.ui",1377359209998
stopped,bundle,org.eclipse.cdt.ui,5.3.2.201202111925,"org.eclipse.cdt.ui",1377359210002
stopped,bundle,org.eclipse.cdt.core,5.3.2.201202111925,"org.eclipse.cdt.core",1377359210003
stopped,bundle,org.eclim.dltkruby,1.7.14,"org.eclim.dltkruby",1377359210004
stopped,bundle,org.eclipse.dltk.ruby.testing,3.0.0.v20110424,"org.eclipse.dltk.ruby.testing",1377359210004
stopped,bundle,org.eclipse.dltk.ruby.debug.ui,3.0.0.v20110424,"org.eclipse.dltk.ruby.debug.ui",1377359210004
stopped,bundle,org.eclipse.dltk.ruby.formatter,3.0.0.v20110424,"org.eclipse.dltk.ruby.formatter",1377359210004
stopped,bundle,org.eclipse.dltk.ruby.ui,3.0.0.v20110423,"org.eclipse.dltk.ruby.ui",1377359210005
stopped,bundle,org.eclipse.dltk.testing,3.0.0.v20110423,"org.eclipse.dltk.testing",1377359210005
stopped,bundle,org.eclim.pdt,1.7.14,"org.eclim.pdt",1377359210005
stopped,bundle,org.eclim.dltk,1.7.14,"org.eclim.dltk",1377359210006
stopped,bundle,org.eclipse.dltk.ruby.activestatedebugger,3.0.0.v20110424,"org.eclipse.dltk.ruby.activestatedebugger",1377359210006
stopped,bundle,org.eclipse.dltk.ruby.basicdebugger,3.0.0.v20110424,"org.eclipse.dltk.ruby.basicdebugger",1377359210006
stopped,bundle,org.eclipse.dltk.ruby.fastdebugger,3.0.0.v20110424,"org.eclipse.dltk.ruby.fastdebugger",1377359210006
stopped,bundle,org.eclipse.php.server.ui,3.0.1.v201201110400,"org.eclipse.php.server.ui",1377359210006
stopped,bundle,org.eclipse.php.debug.ui,3.0.1.v201201110400,"org.eclipse.php.debug.ui",1377359210007
stopped,bundle,org.eclipse.dltk.debug.ui,3.0.0.v20110423,"org.eclipse.dltk.debug.ui",1377359210007
stopped,bundle,org.eclipse.dltk.formatter,3.0.0.v20110609-1525,"org.eclipse.dltk.formatter",1377359210010
stopped,bundle,org.eclipse.dltk.validators.externalchecker,3.0.0.v20110423,"org.eclipse.dltk.validators.externalchecker",1377359210010
stopped,bundle,org.eclipse.dltk.validators.ui,3.0.0.v20110423,"org.eclipse.dltk.validators.ui",1377359210010
stopped,bundle,org.eclipse.php.debug.core,3.0.1.v201201110400,"org.eclipse.php.debug.core",1377359210010
stopped,bundle,org.eclipse.php.ui,3.0.1.v201201110400,"org.eclipse.php.ui",1377359210010
stopped,bundle,org.eclipse.dltk.ui,3.0.1.v20110823,"org.eclipse.dltk.ui",1377359210010
stopped,bundle,org.eclipse.egit.mylyn.ui,1.3.0.201202151440-r,"org.eclipse.egit.mylyn.ui",1377359210010
stopped,bundle,org.eclipse.egit.ui,1.3.0.201202151440-r,"org.eclipse.egit.ui",1377359210010
stopped,bundle,org.eclipse.egit.core,1.3.0.201202151440-r,"org.eclipse.egit.core",1377359210010
stopped,bundle,org.eclipse.equinox.p2.ui.sdk,1.0.200.v20110815-1419,"org.eclipse.equinox.p2.ui.sdk",1377359210011
stopped,bundle,org.eclipse.mylyn.java.tasks,3.8.3.v20130107-0100,"org.eclipse.mylyn.java.tasks",1377359210011
stopped,bundle,org.eclipse.mylyn.java.ui,3.8.3.v20130107-0100,"org.eclipse.mylyn.java.ui",1377359210011
stopped,bundle,org.eclipse.jdt.junit,3.7.0.v20110928-1453,"org.eclipse.jdt.junit",1377359210011
stopped,bundle,net.sf.eclipsecs.ui,5.5.0.201111092104,"net.sf.eclipsecs.ui",1377359210012
stopped,bundle,net.sf.eclipsecs.core,5.5.0.201111092104,"net.sf.eclipsecs.core",1377359210012
stopped,bundle,org.eclipse.jpt.jpa.db,2.0.0.v201105030000,"org.eclipse.jpt.jpa.db",1377359210013
stopped,bundle,org.eclipse.datatools.enablement.jdt.classpath,1.0.1.v201107221501,"org.eclipse.datatools.enablement.jdt.classpath",1377359210013
stopped,bundle,org.eclipse.jdt.apt.ui,3.3.300.v20110305-1450,"org.eclipse.jdt.apt.ui",1377359210013
stopped,bundle,org.eclipse.jdt.debug.ui,3.6.1.v20111006_r372,"org.eclipse.jdt.debug.ui",1377359210013
stopped,bundle,org.eclipse.wb.core.databinding.xml,1.5.2.r37x201303061518,"org.eclipse.wb.core.databinding.xml",1377359210013
stopped,bundle,org.eclipse.wb.swing.databinding,1.3.0.r37x201202021417,"org.eclipse.wb.swing.databinding",1377359210014
stopped,bundle,org.eclipse.wb.core.databinding,1.5.2.r37x201303061505,"org.eclipse.wb.core.databinding",1377359210014
stopped,bundle,org.eclipse.wb.swing.FormLayout,1.3.0.r37x201202021417,"org.eclipse.wb.swing.FormLayout",1377359210014
stopped,bundle,org.eclipse.wb.swing.MigLayout,1.3.0.r37x201202021417,"org.eclipse.wb.swing.MigLayout",1377359210014
stopped,bundle,org.eclipse.wb.swing.java6,1.3.0.r37x201202021417,"org.eclipse.wb.swing.java6",1377359210014
stopped,bundle,org.eclipse.wb.swing.jsr296,1.3.0.r37x201202021417,"org.eclipse.wb.swing.jsr296",1377359210014
stopped,bundle,org.eclipse.wb.swing,1.3.0.r37x201202021417,"org.eclipse.wb.swing",1377359210014
stopped,bundle,org.eclipse.wb.core.ui,1.5.2.r37x201303061516,"org.eclipse.wb.core.ui",1377359210014
stopped,bundle,org.eclipse.wb.core.xml,1.5.2.r37x201303061518,"org.eclipse.wb.core.xml",1377359210014
stopped,bundle,org.eclipse.wb.core.java,1.5.2.r37x201303061505,"org.eclipse.wb.core.java",1377359210014
stopped,bundle,org.eclipse.jdt.ui,3.7.2.v20120109-1427,"org.eclipse.jdt.ui",1377359210019
stopped,bundle,org.eclipse.wst.dtd.ui,1.0.600.v201103171359,"org.eclipse.wst.dtd.ui",1377359210019
stopped,bundle,org.eclim.wst,1.7.14,"org.eclim.wst",1377359210020
stopped,bundle,org.eclipse.wst.jsdt.web.ui,1.0.401.v201108152113,"org.eclipse.wst.jsdt.web.ui",1377359210020
stopped,bundle,org.eclipse.wst.web.ui,1.1.500.v201111030500,"org.eclipse.wst.web.ui",1377359210020
stopped,bundle,org.eclipse.wst.html.ui,1.0.602.v201202091936,"org.eclipse.wst.html.ui",1377359210020
stopped,bundle,org.eclipse.wst.css.ui,1.0.601.v201201101544,"org.eclipse.wst.css.ui",1377359210021
stopped,bundle,org.eclipse.wst.xsd.ui,1.2.404.v201105050216,"org.eclipse.wst.xsd.ui",1377359210021
stopped,bundle,org.eclipse.wst.xml.ui,1.1.202.v201112071516,"org.eclipse.wst.xml.ui",1377359210021
stopped,bundle,org.eclipse.wst.common.ui,1.1.500.v200911190730,"org.eclipse.wst.common.ui",1377359210021
stopped,bundle,org.eclipse.wst.jsdt.debug.rhino.ui,1.0.1.v201201112313,"org.eclipse.wst.jsdt.debug.rhino.ui",1377359210021
stopped,bundle,org.eclipse.wst.jsdt.debug.ui,1.0.101.v201201112313,"org.eclipse.wst.jsdt.debug.ui",1377359210021
stopped,bundle,org.eclipse.wst.jsdt.support.firefox,1.0.400.v201008112000,"org.eclipse.wst.jsdt.support.firefox",1377359210021
stopped,bundle,org.eclipse.wst.jsdt.ui,1.1.102.v201201131900,"org.eclipse.wst.jsdt.ui",1377359210055
stopped,bundle,org.eclipse.wst.sse.ui,1.3.2.v201201041522,"org.eclipse.wst.sse.ui",1377359210055
stopped,bundle,org.eclipse.search,3.7.0.v20110928-1504,"org.eclipse.search",1377359210061
stopped,bundle,org.eclipse.mylyn.commons.team,0.9.1.v20120412-0100,"org.eclipse.mylyn.commons.team",1377359210063
stopped,bundle,org.eclipse.mylyn.team.ui,3.8.3.v20130107-0100,"org.eclipse.mylyn.team.ui",1377359210063
stopped,bundle,org.eclipse.ui.navigator.resources,3.4.300.v20110928-1505,"org.eclipse.ui.navigator.resources",1377359210063
stopped,bundle,org.eclipse.ltk.ui.refactoring,3.6.0.v20110928-1453,"org.eclipse.ltk.ui.refactoring",1377359210063
stopped,bundle,org.eclipse.mylyn.bugzilla.ui,3.8.3.v20130107-0100,"org.eclipse.mylyn.bugzilla.ui",1377359210065
stopped,bundle,org.eclipse.mylyn.ide.ui,3.8.3.v20130107-0100,"org.eclipse.mylyn.ide.ui",1377359210065
stopped,bundle,org.eclipse.mylyn.resources.ui,3.8.3.v20130107-0100,"org.eclipse.mylyn.resources.ui",1377359210065
stopped,bundle,org.eclipse.mylyn.context.tasks.ui,3.8.3.v20130107-0100,"org.eclipse.mylyn.context.tasks.ui",1377359210065
stopped,bundle,org.eclipse.mylyn.help.ui,3.8.3.v20130107-0100,"org.eclipse.mylyn.help.ui",1377359210066
stopped,bundle,org.eclipse.mylyn.tasks.bugs,3.8.3.v20130107-0100,"org.eclipse.mylyn.tasks.bugs",1377359210066
stopped,bundle,org.eclipse.mylyn.wikitext.tasks.ui,1.5.0.v20110608-1400,"org.eclipse.mylyn.wikitext.tasks.ui",1377359210066
stopped,bundle,org.eclipse.mylyn.tasks.ui,3.8.3.v20130107-0100,"org.eclipse.mylyn.tasks.ui",1377359210066
stopped,bundle,org.eclipse.team.cvs.ui,3.3.401.v20120126-1227,"org.eclipse.team.cvs.ui",1377359210066
stopped,bundle,org.eclipse.team.svn.ui,0.7.9.I20120316-1700,"org.eclipse.team.svn.ui",1377359210066
stopped,bundle,org.eclipse.team.ui,3.6.101.R37x_v20111109-0800,"org.eclipse.team.ui",1377359210067
stopped,bundle,org.eclipse.compare,3.5.202.R37x_v20111109-0800,"org.eclipse.compare",1377359210067
stopped,bundle,org.eclim.vimplugin,1.7.14,"org.eclim.vimplugin",1377359210068
stopped,bundle,org.eclipse.dltk.console.ui,3.0.0.v20101212-1106,"org.eclipse.dltk.console.ui",1377359210068
stopped,bundle,org.eclipse.ui.externaltools,3.2.0.v20111007_r372,"org.eclipse.ui.externaltools",1377359210068
stopped,bundle,org.eclipse.wst.server.ui,1.3.0.v20120210_1439,"org.eclipse.wst.server.ui",1377359210068
stopped,bundle,org.eclipse.debug.ui,3.7.102.v20111129-1423_r372,"org.eclipse.debug.ui",1377359210072
stopped,bundle,org.eclipse.mylyn.commons.notifications.ui,1.0.3.v20130107-0100,"org.eclipse.mylyn.commons.notifications.ui",1377359210072
stopped,bundle,org.eclipse.mylyn.commons.repositories.ui,1.0.3.v20130107-0100,"org.eclipse.mylyn.commons.repositories.ui",1377359210072
stopped,bundle,org.eclipse.mylyn.context.ui,3.8.3.v20130107-0100,"org.eclipse.mylyn.context.ui",1377359210072
stopped,bundle,org.eclipse.mylyn.commons.workbench,3.8.3.v20130107-0100,"org.eclipse.mylyn.commons.workbench",1377359210072
stopped,bundle,org.eclipse.mylyn.wikitext.ui,1.5.0.v20110608-1400,"org.eclipse.mylyn.wikitext.ui",1377359210072
stopped,bundle,org.eclipse.ui.console,3.5.100.v20111007_r372,"org.eclipse.ui.console",1377359210072
stopped,bundle,org.eclipse.wb.css,1.5.2.r37x201303061510,"org.eclipse.wb.css",1377359210073
stopped,bundle,org.eclipse.wb.layout.group,1.3.0.r37x201202060028,"org.eclipse.wb.layout.group",1377359210073
stopped,bundle,org.eclipse.wb.os.macosx,1.5.2.r37x201303061457,"org.eclipse.wb.os.macosx",1377359210073
stopped,bundle,org.eclipse.wb.core,1.5.2.r37x201303061457,"org.eclipse.wb.core",1377359210073
stopped,bundle,net.sourceforge.vrapper.eclipse,0.34.1,"net.sourceforge.vrapper.eclipse",1377359210074
stopped,bundle,org.eclipse.ui.editors,3.7.0.v20110928-1504,"org.eclipse.ui.editors",1377359210074
stopped,bundle,org.eclipse.wst.common.snippets,1.2.100.v201103281740,"org.eclipse.wst.common.snippets",1377359210075
stopped,bundle,org.eclipse.ui.workbench.texteditor,3.7.0.v20110928-1504,"org.eclipse.ui.workbench.texteditor",1377359210075
