what,kind,bundleId,bundleVersion,description,time
started,bundle,org.eclipse.mylyn.monitor.ui,3.8.3.v20130107-0100,"org.eclipse.mylyn.monitor.ui",1377357677112
started,bundle,org.eclipse.mylyn.tasks.index.core,3.8.3.v20130107-0100,"org.eclipse.mylyn.tasks.index.core",1377357677113
started,bundle,org.eclipse.mylyn.tasks.ui,3.8.3.v20130107-0100,"org.eclipse.mylyn.tasks.ui",1377357677113
started,bundle,org.eclipse.mylyn.team.ui,3.8.3.v20130107-0100,"org.eclipse.mylyn.team.ui",1377357677113
started,bundle,org.eclipse.search,3.7.0.v20110928-1504,"org.eclipse.search",1377357677113
started,bundle,org.eclipse.team.core,3.6.0.I20110525-0800,"org.eclipse.team.core",1377357677113
started,bundle,org.eclipse.team.cvs.core,3.3.400.I20110510-0800,"org.eclipse.team.cvs.core",1377357677114
started,bundle,org.eclipse.team.cvs.ui,3.3.401.v20120126-1227,"org.eclipse.team.cvs.ui",1377357677114
started,bundle,org.eclipse.team.svn.core,0.7.9.I20120316-1700,"org.eclipse.team.svn.core",1377357677114
started,bundle,org.eclipse.team.ui,3.6.101.R37x_v20111109-0800,"org.eclipse.team.ui",1377357677114
started,bundle,org.eclipse.ui,3.7.0.v20110928-1505,"org.eclipse.ui",1377357677114
started,bundle,org.eclipse.ui.console,3.5.100.v20111007_r372,"org.eclipse.ui.console",1377357677114
started,bundle,org.eclipse.ui.editors,3.7.0.v20110928-1504,"org.eclipse.ui.editors",1377357677114
started,bundle,org.eclipse.ui.forms,3.5.101.v20111011-1919,"org.eclipse.ui.forms",1377357677115
started,bundle,org.eclipse.ui.ide,3.7.0.v20110928-1505,"org.eclipse.ui.ide",1377357677115
started,bundle,org.eclipse.ui.navigator,3.5.101.v20120106-1355,"org.eclipse.ui.navigator",1377357677115
started,bundle,org.eclipse.ui.net,1.2.100.v20111208-1155,"org.eclipse.ui.net",1377357677115
started,bundle,org.eclipse.ui.views,3.6.0.v20110928-1505,"org.eclipse.ui.views",1377357677115
started,bundle,org.eclipse.ui.workbench,3.7.1.v20120104-1859,"org.eclipse.ui.workbench",1377357677115
started,bundle,org.eclipse.ui.workbench.texteditor,3.7.0.v20110928-1504,"org.eclipse.ui.workbench.texteditor",1377357677115
started,bundle,org.eclipse.update.configurator,3.3.100.v20100512,"org.eclipse.update.configurator",1377357677116
started,bundle,org.eclipse.wb.core,1.5.2.r37x201303061457,"org.eclipse.wb.core",1377357677116
started,bundle,org.eclipse.wb.core.java,1.5.2.r37x201303061505,"org.eclipse.wb.core.java",1377357677116
started,bundle,org.eclipse.wb.core.lib,1.5.2.r37x201303061457,"org.eclipse.wb.core.lib",1377357677175
started,bundle,org.eclipse.wst.common.project.facet.core,1.4.201.v201201101553,"org.eclipse.wst.common.project.facet.core",1377357677175
started,bundle,org.eclipse.wst.common.uriresolver,1.1.401.v201004280700,"org.eclipse.wst.common.uriresolver",1377357677175
started,bundle,org.eclipse.wst.dtd.ui,1.0.600.v201103171359,"org.eclipse.wst.dtd.ui",1377357677175
started,bundle,org.eclipse.wst.sse.core,1.1.602.v201112071516,"org.eclipse.wst.sse.core",1377357677175
started,bundle,org.eclipse.wst.sse.ui,1.3.2.v201201041522,"org.eclipse.wst.sse.ui",1377357677175
started,bundle,org.eclipse.wst.validation,1.2.303.v201202090300,"org.eclipse.wst.validation",1377357677175
started,bundle,org.eclipse.wst.xml.core,1.1.602.v201201091944,"org.eclipse.wst.xml.core",1377357677175
started,bundle,org.eclipse.wst.xml.ui,1.1.202.v201112071516,"org.eclipse.wst.xml.ui",1377357677175
os,sysinfo,,,"macosx",1377357677179
arch,sysinfo,,,"x86_64",1377357677179
ws,sysinfo,,,"cocoa",1377357677179
locale,sysinfo,,,"en_US",1377357677179
processors,sysinfo,,,"4",1377357677179
java.runtime.name,sysinfo,,,"Java(TM) SE Runtime Environment",1377357677179
java.runtime.version,sysinfo,,,"1.6.0_51-b11-456-11M4508",1377357677179
java.specification.name,sysinfo,,,"Java Platform API Specification",1377357677179
java.specification.vendor,sysinfo,,,"Sun Microsystems Inc.",1377357677179
java.specification.version,sysinfo,,,"1.6",1377357677179
java.vendor,sysinfo,,,"Apple Inc.",1377357677179
java.version,sysinfo,,,"1.6.0_51",1377357677179
java.vm.info,sysinfo,,,"mixed mode",1377357677179
java.vm.name,sysinfo,,,"Java HotSpot(TM) 64-Bit Server VM",1377357677179
java.vm.specification.name,sysinfo,,,"Java Virtual Machine Specification",1377357677179
java.vm.specification.vendor,sysinfo,,,"Sun Microsystems Inc.",1377357677179
java.vm.specification.version,sysinfo,,,"1.0",1377357677179
java.vm.vendor,sysinfo,,,"Apple Inc.",1377357677179
java.vm.version,sysinfo,,,"20.51-b01-456",1377357677179
started,bundle,org.eclipse.m2e.usagedata,1.0.200.20111228-1245,"org.eclipse.m2e.usagedata",1377357677181
started,bundle,org.eclipse.team.svn.ui,0.7.9.I20120316-1700,"org.eclipse.team.svn.ui",1377357678004
started,bundle,org.eclipse.update.scheduler,3.2.300.v20100512,"org.eclipse.update.scheduler",1377357678228
started,bundle,org.eclipse.update.core,3.2.500.v20110330,"org.eclipse.update.core",1377357678444
started,bundle,org.eclipse.wb.discovery.core,1.5.2.r37x201303061516,"org.eclipse.wb.discovery.core",1377357678578
started,bundle,org.polarion.eclipse.team.svn.connector.svnkit16l,2.2.2.I20120210-1700,"org.polarion.eclipse.team.svn.connector.svnkit16l",1377357678633
started,bundle,org.eclipse.wb.discovery.ui,1.5.2.r37x201303061516,"org.eclipse.wb.discovery.ui",1377357679536
started,bundle,net.sourceforge.vrapper.eclipse,0.34.1,"net.sourceforge.vrapper.eclipse",1377357679540
executed,command,net.sourceforge.vrapper.eclipse,0.34.1,"net.sourceforge.vrapper.eclipse.commands.toggle",1377357679706
activated,workbench,org.eclipse.ui.workbench,3.7.1.v20120104-1859,"",1377358103452
activated,editor,com.android.ide.eclipse.adt,22.0.1.v201305230001--685705,"com.android.ide.eclipse.editors.CommonXmlEditor",1377358106048
deactivated,workbench,org.eclipse.ui.workbench,3.7.1.v20120104-1859,"",1377358108061
activated,workbench,org.eclipse.ui.workbench,3.7.1.v20120104-1859,"",1377358110336
deactivated,workbench,org.eclipse.ui.workbench,3.7.1.v20120104-1859,"",1377358134404
activated,workbench,org.eclipse.ui.workbench,3.7.1.v20120104-1859,"",1377358137038
executed,command,org.eclipse.ui,3.7.0.v20110928-1505,"org.eclipse.ui.edit.delete",1377358142875
executed,command,org.eclipse.ui,3.7.0.v20110928-1505,"org.eclipse.ui.edit.delete",1377358179848
deactivated,workbench,org.eclipse.ui.workbench,3.7.1.v20120104-1859,"",1377358206178
activated,workbench,org.eclipse.ui.workbench,3.7.1.v20120104-1859,"",1377358215471
deactivated,workbench,org.eclipse.ui.workbench,3.7.1.v20120104-1859,"",1377358218764
activated,workbench,org.eclipse.ui.workbench,3.7.1.v20120104-1859,"",1377358221403
deactivated,workbench,org.eclipse.ui.workbench,3.7.1.v20120104-1859,"",1377358224540
activated,workbench,org.eclipse.ui.workbench,3.7.1.v20120104-1859,"",1377358229738
deactivated,workbench,org.eclipse.ui.workbench,3.7.1.v20120104-1859,"",1377358240962
activated,workbench,org.eclipse.ui.workbench,3.7.1.v20120104-1859,"",1377358243431
deactivated,workbench,org.eclipse.ui.workbench,3.7.1.v20120104-1859,"",1377358246395
started,bundle,org.eclipse.dltk.core.manipulation,3.0.0.v20110609-1525,"org.eclipse.dltk.core.manipulation",1377358259796
started,bundle,org.eclipse.wst.jsdt.manipulation,1.0.300.v201104272153,"org.eclipse.wst.jsdt.manipulation",1377358260039
started,bundle,org.eclipse.wst.jsdt.core,1.1.102.v201111090634,"org.eclipse.wst.jsdt.core",1377358260348
started,bundle,org.eclipse.wst.jsdt.ui,1.1.102.v201201131900,"org.eclipse.wst.jsdt.ui",1377358260500
activated,workbench,org.eclipse.ui.workbench,3.7.1.v20120104-1859,"",1377358261144
executed,command,org.eclipse.ui,3.7.0.v20110928-1505,"org.eclipse.ui.edit.delete",1377358270159
error,log,,,"",1377358329048
error,log,,,"",1377358368371
error,log,,,"palette: Failed to find style 'switchStyle' in current theme",1377358368373
error,log,,,"palette: Failed to find style 'switchStyle' in current theme",1377358368374
error,log,,,"palette: Failed to find style 'switchStyle' in current theme",1377358368375
error,log,,,"palette: Failed to find style 'switchStyle' in current theme",1377358368375
error,log,,,"palette: Failed to find style 'switchStyle' in current theme",1377358368376
error,log,,,"palette: Failed to find style 'switchStyle' in current theme",1377358368377
error,log,,,"",1377358368378
error,log,,,"",1377358380676
error,log,,,"",1377358395860
error,log,,,"palette: Failed to find style 'switchStyle' in current theme",1377358395862
error,log,,,"palette: Failed to find style 'switchStyle' in current theme",1377358395862
error,log,,,"palette: Failed to find style 'switchStyle' in current theme",1377358395863
error,log,,,"palette: Failed to find style 'switchStyle' in current theme",1377358395864
error,log,,,"palette: Failed to find style 'switchStyle' in current theme",1377358395864
error,log,,,"palette: Failed to find style 'switchStyle' in current theme",1377358395865
error,log,,,"",1377358395867
error,log,,,"",1377358401786
error,log,,,"palette: Failed to find style 'switchStyle' in current theme",1377358401788
error,log,,,"palette: Failed to find style 'switchStyle' in current theme",1377358401789
error,log,,,"palette: Failed to find style 'switchStyle' in current theme",1377358401789
error,log,,,"palette: Failed to find style 'switchStyle' in current theme",1377358401790
error,log,,,"palette: Failed to find style 'switchStyle' in current theme",1377358401790
error,log,,,"palette: Failed to find style 'switchStyle' in current theme",1377358401791
error,log,,,"",1377358401792
started,bundle,org.eclipse.cdt.debug.core,7.1.0.201202111925,"org.eclipse.cdt.debug.core",1377358423691
started,bundle,org.eclipse.cdt.debug.ui,7.1.2.201202111925,"org.eclipse.cdt.debug.ui",1377358423709
started,bundle,org.eclipse.php.core,3.0.1.v201201110400,"org.eclipse.php.core",1377358423934
started,bundle,org.eclipse.dltk.ruby.core,3.0.0.v20110423,"org.eclipse.dltk.ruby.core",1377358423979
started,bundle,org.eclipse.wst.server.core,1.1.304.v20120208_1420,"org.eclipse.wst.server.core",1377358424032
started,bundle,org.eclipse.wst.server.ui,1.3.0.v20120210_1439,"org.eclipse.wst.server.ui",1377358424055
started,bundle,org.eclipse.php.debug.ui,3.0.1.v201201110400,"org.eclipse.php.debug.ui",1377358424103
started,bundle,org.eclipse.php.server.ui,3.0.1.v201201110400,"org.eclipse.php.server.ui",1377358424125
started,bundle,com.google.appengine.eclipse.core,3.2.2.v201303261859-rel-r37,"com.google.appengine.eclipse.core",1377358425057
started,bundle,com.google.gdt.eclipse.suite,3.2.2.v201303261859-rel-r37,"com.google.gdt.eclipse.suite",1377358425058
deactivated,workbench,org.eclipse.ui.workbench,3.7.1.v20120104-1859,"",1377358425231
activated,workbench,org.eclipse.ui.workbench,3.7.1.v20120104-1859,"",1377358428230
activated,view,org.eclipse.jdt.ui,3.7.2.v20120109-1427,"org.eclipse.jdt.ui.PackageExplorer",1377358435778
activated,editor,com.android.ide.eclipse.adt,22.0.1.v201305230001--685705,"com.android.ide.eclipse.editors.CommonXmlEditor",1377358445539
deactivated,workbench,org.eclipse.ui.workbench,3.7.1.v20120104-1859,"",1377358461788
activated,workbench,org.eclipse.ui.workbench,3.7.1.v20120104-1859,"",1377358466726
activated,perspective,org.eclipse.jdt.ui,,"org.eclipse.jdt.ui.JavaPerspective",1377358914141
started,bundle,org.eclipse.osgi,3.7.2.v20120110-1415,"org.eclipse.osgi",1377358914142
started,bundle,org.eclipse.equinox.simpleconfigurator,1.0.200.v20110815-1438,"org.eclipse.equinox.simpleconfigurator",1377358914143
started,bundle,com.android.ide.eclipse.adt,22.0.1.v201305230001--685705,"com.android.ide.eclipse.adt",1377358914143
started,bundle,com.android.ide.eclipse.base,22.0.1.v201305230001--685705,"com.android.ide.eclipse.base",1377358914143
started,bundle,com.google.gdt.eclipse.core,3.2.2.v201303261859-rel-r37,"com.google.gdt.eclipse.core",1377358914143
started,bundle,com.google.gdt.eclipse.designer,3.1.2.r37x201303061530,"com.google.gdt.eclipse.designer",1377358914143
started,bundle,com.google.gdt.eclipse.designer.UiBinder,3.1.2.r37x201303061530,"com.google.gdt.eclipse.designer.UiBinder",1377358914143
started,bundle,com.google.gdt.eclipse.designer.hosted,3.1.2.r37x201303061525,"com.google.gdt.eclipse.designer.hosted",1377358914143
started,bundle,com.google.gdt.eclipse.login,3.2.2.v201303261859-rel-r37,"com.google.gdt.eclipse.login",1377358914144
started,bundle,com.google.gdt.eclipse.managedapis,3.2.2.v201303261859-rel-r37,"com.google.gdt.eclipse.managedapis",1377358914144
started,bundle,com.google.gdt.eclipse.mobile.android,3.2.2.v201303261859-rel-r37,"com.google.gdt.eclipse.mobile.android",1377358914144
started,bundle,com.google.gdt.eclipse.platform.e37,3.2.2.v201303261859-rel-r37,"com.google.gdt.eclipse.platform.e37",1377358914144
started,bundle,com.google.gdt.eclipse.suite.ext,3.2.2.v201303261859-rel-r37,"com.google.gdt.eclipse.suite.ext",1377358914144
started,bundle,com.google.gwt.eclipse.core,3.2.2.v201303261859-rel-r37,"com.google.gwt.eclipse.core",1377358914144
started,bundle,com.ibm.icu,4.4.2.v20110823,"com.ibm.icu",1377358914145
started,bundle,net.sf.eclipsecs.core,5.5.0.201111092104,"net.sf.eclipsecs.core",1377358914145
started,bundle,net.sf.eclipsecs.ui,5.5.0.201111092104,"net.sf.eclipsecs.ui",1377358914145
started,bundle,org.eclipse.ant.ui,3.5.101.v20120110-1739,"org.eclipse.ant.ui",1377358914145
started,bundle,org.eclipse.cdt.codan.checkers,1.0.1.201202111925,"org.eclipse.cdt.codan.checkers",1377358914145
started,bundle,org.eclipse.cdt.codan.core,2.0.0.201202111925,"org.eclipse.cdt.codan.core",1377358914145
started,bundle,org.eclipse.cdt.codan.core.cxx,1.0.0.201202111925,"org.eclipse.cdt.codan.core.cxx",1377358914145
started,bundle,org.eclipse.cdt.codan.ui.cxx,2.0.0.201202111925,"org.eclipse.cdt.codan.ui.cxx",1377358914146
started,bundle,org.eclipse.cdt.core,5.3.2.201202111925,"org.eclipse.cdt.core",1377358914146
started,bundle,org.eclipse.cdt.dsf,2.2.0.201202111925,"org.eclipse.cdt.dsf",1377358914146
started,bundle,org.eclipse.cdt.dsf.gdb,4.0.2.201202111925,"org.eclipse.cdt.dsf.gdb",1377358914146
started,bundle,org.eclipse.cdt.dsf.gdb.ui,2.2.1.201202111925,"org.eclipse.cdt.dsf.gdb.ui",1377358914147
started,bundle,org.eclipse.cdt.make.core,7.1.2.201202111925,"org.eclipse.cdt.make.core",1377358914147
started,bundle,org.eclipse.cdt.make.ui,7.1.2.201202111925,"org.eclipse.cdt.make.ui",1377358914147
started,bundle,org.eclipse.cdt.managedbuilder.core,8.0.2.201202111925,"org.eclipse.cdt.managedbuilder.core",1377358914147
started,bundle,org.eclipse.cdt.ui,5.3.2.201202111925,"org.eclipse.cdt.ui",1377358914147
started,bundle,org.eclipse.compare.core,3.5.200.I20110208-0800,"org.eclipse.compare.core",1377358914147
started,bundle,org.eclipse.core.contenttype,3.4.100.v20110423-0524,"org.eclipse.core.contenttype",1377358914147
started,bundle,org.eclipse.core.databinding.observable,1.4.0.I20110222-0800,"org.eclipse.core.databinding.observable",1377358914148
started,bundle,org.eclipse.core.expressions,3.4.300.v20110228,"org.eclipse.core.expressions",1377358914148
started,bundle,org.eclipse.core.filebuffers,3.5.200.v20110928-1504,"org.eclipse.core.filebuffers",1377358914148
started,bundle,org.eclipse.core.filesystem,1.3.100.v20110423-0524,"org.eclipse.core.filesystem",1377358914148
started,bundle,org.eclipse.core.jobs,3.5.101.v20120113-1953,"org.eclipse.core.jobs",1377358914148
started,bundle,org.eclipse.core.net,1.2.100.I20110511-0800,"org.eclipse.core.net",1377358914149
started,bundle,org.eclipse.core.resources,3.7.101.v20120125-1505,"org.eclipse.core.resources",1377358914149
started,bundle,org.eclipse.core.runtime,3.7.0.v20110110,"org.eclipse.core.runtime",1377358914149
started,bundle,org.eclipse.core.runtime.compatibility,3.2.100.v20100505,"org.eclipse.core.runtime.compatibility",1377358914149
started,bundle,org.eclipse.core.runtime.compatibility.auth,3.2.200.v20110110,"org.eclipse.core.runtime.compatibility.auth",1377358914149
started,bundle,org.eclipse.debug.core,3.7.1.v20111129-2031,"org.eclipse.debug.core",1377358914149
started,bundle,org.eclipse.debug.ui,3.7.102.v20111129-1423_r372,"org.eclipse.debug.ui",1377358914150
started,bundle,org.eclipse.dltk.core,3.0.1.v20110823,"org.eclipse.dltk.core",1377358914150
started,bundle,org.eclipse.dltk.launching,3.0.0.v20110423,"org.eclipse.dltk.launching",1377358914150
started,bundle,org.eclipse.dltk.ui,3.0.1.v20110823,"org.eclipse.dltk.ui",1377358914150
started,bundle,org.eclipse.egit.core,1.3.0.201202151440-r,"org.eclipse.egit.core",1377358914150
started,bundle,org.eclipse.egit.ui,1.3.0.201202151440-r,"org.eclipse.egit.ui",1377358914150
started,bundle,org.eclipse.emf.common,2.7.0.v20120127-1122,"org.eclipse.emf.common",1377358914151
started,bundle,org.eclipse.epp.mpc.ui,1.1.1.I20110907-0947,"org.eclipse.epp.mpc.ui",1377358914151
started,bundle,org.eclipse.epp.usagedata.gathering,1.3.1.R201106061540,"org.eclipse.epp.usagedata.gathering",1377358914151
started,bundle,org.eclipse.epp.usagedata.recording,1.3.1.R201106061540,"org.eclipse.epp.usagedata.recording",1377358914151
started,bundle,org.eclipse.equinox.app,1.3.100.v20110321,"org.eclipse.equinox.app",1377358914151
started,bundle,org.eclipse.equinox.common,3.6.0.v20110523,"org.eclipse.equinox.common",1377358914151
started,bundle,org.eclipse.equinox.ds,1.3.1.R37x_v20110701,"org.eclipse.equinox.ds",1377358914152
started,bundle,org.eclipse.equinox.event,1.2.100.v20110502,"org.eclipse.equinox.event",1377358914155
started,bundle,org.eclipse.equinox.p2.core,2.1.1.v20120113-1346,"org.eclipse.equinox.p2.core",1377358914155
started,bundle,org.eclipse.equinox.p2.directorywatcher,1.0.300.v20110815-1419,"org.eclipse.equinox.p2.directorywatcher",1377358914157
started,bundle,org.eclipse.equinox.p2.engine,2.1.1.R37x_v20111003,"org.eclipse.equinox.p2.engine",1377358914157
started,bundle,org.eclipse.equinox.p2.metadata,2.1.0.v20110815-1419,"org.eclipse.equinox.p2.metadata",1377358914158
started,bundle,org.eclipse.equinox.p2.metadata.repository,1.2.0.v20110815-1419,"org.eclipse.equinox.p2.metadata.repository",1377358914158
started,bundle,org.eclipse.equinox.p2.operations,2.1.1.R37x_v20111111,"org.eclipse.equinox.p2.operations",1377358914158
started,bundle,org.eclipse.equinox.p2.reconciler.dropins,1.1.100.v20110815-1419,"org.eclipse.equinox.p2.reconciler.dropins",1377358914158
started,bundle,org.eclipse.equinox.p2.repository,2.1.1.v20120113-1346,"org.eclipse.equinox.p2.repository",1377358914159
started,bundle,org.eclipse.equinox.p2.ui.sdk.scheduler,1.0.100.v20110815-1419,"org.eclipse.equinox.p2.ui.sdk.scheduler",1377358914159
started,bundle,org.eclipse.equinox.p2.updatechecker,1.1.200.v20110815-1419,"org.eclipse.equinox.p2.updatechecker",1377358914160
started,bundle,org.eclipse.equinox.preferences,3.4.2.v20120111-2020,"org.eclipse.equinox.preferences",1377358914160
started,bundle,org.eclipse.equinox.registry,3.5.101.R37x_v20110810-1611,"org.eclipse.equinox.registry",1377358914160
started,bundle,org.eclipse.equinox.security,1.1.1.R37x_v20110822-1018,"org.eclipse.equinox.security",1377358914160
started,bundle,org.eclipse.equinox.util,1.0.300.v20110502,"org.eclipse.equinox.util",1377358914163
started,bundle,org.eclipse.help,3.5.100.v20110426,"org.eclipse.help",1377358914163
started,bundle,org.eclipse.jdt.core,3.7.3.v20120119-1537,"org.eclipse.jdt.core",1377358914163
started,bundle,org.eclipse.jdt.core.manipulation,1.4.0.v20110928-1453,"org.eclipse.jdt.core.manipulation",1377358914163
started,bundle,org.eclipse.jdt.launching,3.6.1.v20111006_r372,"org.eclipse.jdt.launching",1377358914163
started,bundle,org.eclipse.jdt.ui,3.7.2.v20120109-1427,"org.eclipse.jdt.ui",1377358914163
started,bundle,org.eclipse.jface,3.7.0.v20110928-1505,"org.eclipse.jface",1377358914164
started,bundle,org.eclipse.jgit,1.3.0.201202151440-r,"org.eclipse.jgit",1377358914164
started,bundle,org.eclipse.jpt.common.core,1.0.2.v201111103010,"org.eclipse.jpt.common.core",1377358914164
started,bundle,org.eclipse.jsch.core,1.1.300.I20110514-0800,"org.eclipse.jsch.core",1377358914164
started,bundle,org.eclipse.jst.common.project.facet.core,1.4.200.v201103170302,"org.eclipse.jst.common.project.facet.core",1377358914164
started,bundle,org.eclipse.ltk.core.refactoring,3.5.201.r372_v20111101-0700,"org.eclipse.ltk.core.refactoring",1377358914164
started,bundle,org.eclipse.ltk.ui.refactoring,3.6.0.v20110928-1453,"org.eclipse.ltk.ui.refactoring",1377358914164
started,bundle,org.eclipse.m2e.logback.configuration,1.0.200.20111228-1245,"org.eclipse.m2e.logback.configuration",1377358914164
started,bundle,org.eclipse.mylyn.bugzilla.core,3.8.3.v20130107-0100,"org.eclipse.mylyn.bugzilla.core",1377358914164
started,bundle,org.eclipse.mylyn.bugzilla.ui,3.8.3.v20130107-0100,"org.eclipse.mylyn.bugzilla.ui",1377358914164
started,bundle,org.eclipse.mylyn.commons.core,3.8.3.v20130107-0100,"org.eclipse.mylyn.commons.core",1377358914164
started,bundle,org.eclipse.mylyn.commons.net,3.8.3.v20130107-0100,"org.eclipse.mylyn.commons.net",1377358914164
started,bundle,org.eclipse.mylyn.commons.notifications.core,1.0.3.v20130107-0100,"org.eclipse.mylyn.commons.notifications.core",1377358914165
started,bundle,org.eclipse.mylyn.commons.notifications.feed,1.0.3.v20130107-0100,"org.eclipse.mylyn.commons.notifications.feed",1377358914165
started,bundle,org.eclipse.mylyn.commons.notifications.ui,1.0.3.v20130107-0100,"org.eclipse.mylyn.commons.notifications.ui",1377358914165
started,bundle,org.eclipse.mylyn.commons.ui,3.8.3.v20130107-0100,"org.eclipse.mylyn.commons.ui",1377358914166
started,bundle,org.eclipse.mylyn.commons.workbench,3.8.3.v20130107-0100,"org.eclipse.mylyn.commons.workbench",1377358914166
started,bundle,org.eclipse.mylyn.context.core,3.8.3.v20130107-0100,"org.eclipse.mylyn.context.core",1377358914166
started,bundle,org.eclipse.mylyn.context.tasks.ui,3.8.3.v20130107-0100,"org.eclipse.mylyn.context.tasks.ui",1377358914166
started,bundle,org.eclipse.mylyn.monitor.ui,3.8.3.v20130107-0100,"org.eclipse.mylyn.monitor.ui",1377358914166
started,bundle,org.eclipse.mylyn.tasks.index.core,3.8.3.v20130107-0100,"org.eclipse.mylyn.tasks.index.core",1377358914167
started,bundle,org.eclipse.mylyn.tasks.ui,3.8.3.v20130107-0100,"org.eclipse.mylyn.tasks.ui",1377358914167
started,bundle,org.eclipse.mylyn.team.ui,3.8.3.v20130107-0100,"org.eclipse.mylyn.team.ui",1377358914167
started,bundle,org.eclipse.search,3.7.0.v20110928-1504,"org.eclipse.search",1377358914167
started,bundle,org.eclipse.team.core,3.6.0.I20110525-0800,"org.eclipse.team.core",1377358914167
started,bundle,org.eclipse.team.cvs.core,3.3.400.I20110510-0800,"org.eclipse.team.cvs.core",1377358914167
started,bundle,org.eclipse.team.cvs.ui,3.3.401.v20120126-1227,"org.eclipse.team.cvs.ui",1377358914167
started,bundle,org.eclipse.team.svn.core,0.7.9.I20120316-1700,"org.eclipse.team.svn.core",1377358914168
started,bundle,org.eclipse.team.svn.ui,0.7.9.I20120316-1700,"org.eclipse.team.svn.ui",1377358914168
started,bundle,org.eclipse.team.ui,3.6.101.R37x_v20111109-0800,"org.eclipse.team.ui",1377358914168
started,bundle,org.eclipse.ui,3.7.0.v20110928-1505,"org.eclipse.ui",1377358914168
started,bundle,org.eclipse.ui.console,3.5.100.v20111007_r372,"org.eclipse.ui.console",1377358914168
started,bundle,org.eclipse.ui.editors,3.7.0.v20110928-1504,"org.eclipse.ui.editors",1377358914168
started,bundle,org.eclipse.ui.forms,3.5.101.v20111011-1919,"org.eclipse.ui.forms",1377358914169
started,bundle,org.eclipse.ui.ide,3.7.0.v20110928-1505,"org.eclipse.ui.ide",1377358914169
started,bundle,org.eclipse.ui.navigator,3.5.101.v20120106-1355,"org.eclipse.ui.navigator",1377358914169
started,bundle,org.eclipse.ui.net,1.2.100.v20111208-1155,"org.eclipse.ui.net",1377358914169
started,bundle,org.eclipse.ui.views,3.6.0.v20110928-1505,"org.eclipse.ui.views",1377358914169
started,bundle,org.eclipse.ui.workbench,3.7.1.v20120104-1859,"org.eclipse.ui.workbench",1377358914169
started,bundle,org.eclipse.ui.workbench.texteditor,3.7.0.v20110928-1504,"org.eclipse.ui.workbench.texteditor",1377358914169
started,bundle,org.eclipse.update.configurator,3.3.100.v20100512,"org.eclipse.update.configurator",1377358914170
started,bundle,org.eclipse.update.core,3.2.500.v20110330,"org.eclipse.update.core",1377358914170
started,bundle,org.eclipse.update.scheduler,3.2.300.v20100512,"org.eclipse.update.scheduler",1377358914170
started,bundle,org.eclipse.wb.core,1.5.2.r37x201303061457,"org.eclipse.wb.core",1377358914170
started,bundle,org.eclipse.wb.core.java,1.5.2.r37x201303061505,"org.eclipse.wb.core.java",1377358914170
started,bundle,org.eclipse.wb.core.lib,1.5.2.r37x201303061457,"org.eclipse.wb.core.lib",1377358914171
started,bundle,org.eclipse.wb.discovery.core,1.5.2.r37x201303061516,"org.eclipse.wb.discovery.core",1377358914171
started,bundle,org.eclipse.wst.common.project.facet.core,1.4.201.v201201101553,"org.eclipse.wst.common.project.facet.core",1377358914171
started,bundle,org.eclipse.wst.common.uriresolver,1.1.401.v201004280700,"org.eclipse.wst.common.uriresolver",1377358914171
started,bundle,org.eclipse.wst.dtd.ui,1.0.600.v201103171359,"org.eclipse.wst.dtd.ui",1377358914171
started,bundle,org.eclipse.wst.sse.core,1.1.602.v201112071516,"org.eclipse.wst.sse.core",1377358914171
started,bundle,org.eclipse.wst.sse.ui,1.3.2.v201201041522,"org.eclipse.wst.sse.ui",1377358914172
started,bundle,org.eclipse.wst.validation,1.2.303.v201202090300,"org.eclipse.wst.validation",1377358914172
started,bundle,org.eclipse.wst.xml.core,1.1.602.v201201091944,"org.eclipse.wst.xml.core",1377358914172
started,bundle,org.eclipse.wst.xml.ui,1.1.202.v201112071516,"org.eclipse.wst.xml.ui",1377358914172
started,bundle,org.polarion.eclipse.team.svn.connector.svnkit16l,2.2.2.I20120210-1700,"org.polarion.eclipse.team.svn.connector.svnkit16l",1377358914172
os,sysinfo,,,"macosx",1377358914178
arch,sysinfo,,,"x86_64",1377358914178
ws,sysinfo,,,"cocoa",1377358914178
locale,sysinfo,,,"en_US",1377358914178
processors,sysinfo,,,"4",1377358914178
java.runtime.name,sysinfo,,,"Java(TM) SE Runtime Environment",1377358914178
java.runtime.version,sysinfo,,,"1.6.0_51-b11-456-11M4508",1377358914178
java.specification.name,sysinfo,,,"Java Platform API Specification",1377358914178
java.specification.vendor,sysinfo,,,"Sun Microsystems Inc.",1377358914178
java.specification.version,sysinfo,,,"1.6",1377358914178
java.vendor,sysinfo,,,"Apple Inc.",1377358914178
java.version,sysinfo,,,"1.6.0_51",1377358914178
java.vm.info,sysinfo,,,"mixed mode",1377358914178
java.vm.name,sysinfo,,,"Java HotSpot(TM) 64-Bit Server VM",1377358914178
java.vm.specification.name,sysinfo,,,"Java Virtual Machine Specification",1377358914178
java.vm.specification.vendor,sysinfo,,,"Sun Microsystems Inc.",1377358914178
java.vm.specification.version,sysinfo,,,"1.0",1377358914178
