what,kind,bundleId,bundleVersion,description,time
started,bundle,org.eclim.jdt,1.7.14,"org.eclim.jdt",1377528502145
started,bundle,org.eclim.pdt,1.7.14,"org.eclim.pdt",1377528502146
started,bundle,org.eclim.wst,1.7.14,"org.eclim.wst",1377528502438
started,bundle,org.eclipse.cdt.managedbuilder.ui,8.0.2.201202111925,"org.eclipse.cdt.managedbuilder.ui",1377528502438
activated,view,com.android.ide.eclipse.ddms,22.0.1.v201305230001--685705,"com.android.ide.eclipse.ddms.views.LogCatView",1377528503607
activated,editor,org.eclipse.jdt.ui,3.7.2.v20120109-1427,"org.eclipse.jdt.ui.CompilationUnitEditor",1377528527102
activated,editor,com.android.ide.eclipse.adt,22.0.1.v201305230001--685705,"com.android.ide.eclipse.editors.CommonXmlEditor",1377528615705
deactivated,workbench,org.eclipse.ui.workbench,3.7.1.v20120104-1859,"",1377528661812
error,log,,,"carer_list.xml: addView(View, LayoutParams) is not supported in AdapterView",1377528686669
error,log,,,"carer_list.xml: addView(View, LayoutParams) is not supported in AdapterView",1377528686694
activated,workbench,org.eclipse.ui.workbench,3.7.1.v20120104-1859,"",1377528686737
error,log,,,"carer_list.xml: addView(View, LayoutParams) is not supported in AdapterView",1377528687095
started,bundle,org.eclipse.ui.views.log,1.0.200.v20110404,"org.eclipse.ui.views.log",1377528710375
opened,view,org.eclipse.ui.views.log,1.0.200.v20110404,"org.eclipse.pde.runtime.LogView",1377528710651
activated,view,org.eclipse.ui.views.log,1.0.200.v20110404,"org.eclipse.pde.runtime.LogView",1377528710682
executed,command,org.eclipse.ui,3.7.0.v20110928-1505,"org.eclipse.ui.views.showView",1377528710696
deactivated,workbench,org.eclipse.ui.workbench,3.7.1.v20120104-1859,"",1377528761064
activated,workbench,org.eclipse.ui.workbench,3.7.1.v20120104-1859,"",1377556361422
activated,editor,com.android.ide.eclipse.adt,22.0.1.v201305230001--685705,"com.android.ide.eclipse.editors.CommonXmlEditor",1377556389688
executed,command,org.eclipse.wst.sse.ui,1.3.2.v201201041522,"org.eclipse.wst.sse.ui.format.document",1377556441154
executed,command,org.eclipse.ui,3.7.0.v20110928-1505,"org.eclipse.ui.file.save",1377556443263
activated,editor,com.android.ide.eclipse.adt,22.0.1.v201305230001--685705,"com.android.ide.eclipse.editors.manifest.ManifestEditor",1377556470343
activated,editor,com.android.ide.eclipse.adt,22.0.1.v201305230001--685705,"com.android.ide.eclipse.editors.CommonXmlEditor",1377556472474
error,log,,,"carer_list.xml: addView(View, LayoutParams) is not supported in AdapterView",1377556474520
executed,command,org.eclipse.ui,3.7.0.v20110928-1505,"org.eclipse.ui.edit.undo",1377556488071
executed,command,org.eclipse.ui,3.7.0.v20110928-1505,"org.eclipse.ui.edit.undo",1377556488337
executed,command,org.eclipse.ui,3.7.0.v20110928-1505,"org.eclipse.ui.edit.undo",1377556488707
executed,command,org.eclipse.ui,3.7.0.v20110928-1505,"org.eclipse.ui.edit.undo",1377556489154
executed,command,org.eclipse.ui,3.7.0.v20110928-1505,"org.eclipse.ui.file.save",1377556496648
activated,editor,com.android.ide.eclipse.adt,22.0.1.v201305230001--685705,"com.android.ide.eclipse.editors.manifest.ManifestEditor",1377556562230
activated,editor,com.android.ide.eclipse.adt,22.0.1.v201305230001--685705,"com.android.ide.eclipse.editors.CommonXmlEditor",1377556563964
deactivated,workbench,org.eclipse.ui.workbench,3.7.1.v20120104-1859,"",1377556574897
activated,workbench,org.eclipse.ui.workbench,3.7.1.v20120104-1859,"",1377556897410
deactivated,workbench,org.eclipse.ui.workbench,3.7.1.v20120104-1859,"",1377556902462
activated,workbench,org.eclipse.ui.workbench,3.7.1.v20120104-1859,"",1377557295964
deactivated,workbench,org.eclipse.ui.workbench,3.7.1.v20120104-1859,"",1377557307609
activated,workbench,org.eclipse.ui.workbench,3.7.1.v20120104-1859,"",1377557309358
executed,command,org.eclipse.ui.ide,3.7.0.v20110928-1505,"org.eclipse.jdt.ui.edit.text.java.correction.assist.proposals",1377557333306
deactivated,workbench,org.eclipse.ui.workbench,3.7.1.v20120104-1859,"",1377557342751
activated,workbench,org.eclipse.ui.workbench,3.7.1.v20120104-1859,"",1377557349607
deactivated,workbench,org.eclipse.ui.workbench,3.7.1.v20120104-1859,"",1377557353056
activated,workbench,org.eclipse.ui.workbench,3.7.1.v20120104-1859,"",1377557360683
executed,command,org.eclipse.ui,3.7.0.v20110928-1505,"org.eclipse.ui.edit.paste",1377557364755
executed,command,org.eclipse.ui,3.7.0.v20110928-1505,"org.eclipse.ui.file.save",1377557366107
executed,command,org.eclipse.wst.sse.ui,1.3.2.v201201041522,"org.eclipse.wst.sse.ui.format.document",1377557372918
executed,command,org.eclipse.ui.ide,3.7.0.v20110928-1505,"org.eclipse.jdt.ui.edit.text.java.correction.assist.proposals",1377557383099
deactivated,workbench,org.eclipse.ui.workbench,3.7.1.v20120104-1859,"",1377557385123
activated,workbench,org.eclipse.ui.workbench,3.7.1.v20120104-1859,"",1377557387033
error,log,,,"Index out of bounds",1377557387213
executed,command,org.eclipse.ui,3.7.0.v20110928-1505,"org.eclipse.ui.file.save",1377557414174
error,log,,,"carer_list.xml: com.android.layoutlib.bridge.MockView cannot be cast to android.view.ViewGroup",1377557423327
executed,command,org.eclipse.ui.ide,3.7.0.v20110928-1505,"org.eclipse.jdt.ui.edit.text.java.correction.assist.proposals",1377557440788
executed,command,org.eclipse.wst.sse.ui,1.3.2.v201201041522,"org.eclipse.wst.sse.ui.format.document",1377557446609
deactivated,workbench,org.eclipse.ui.workbench,3.7.1.v20120104-1859,"",1377557466815
activated,workbench,org.eclipse.ui.workbench,3.7.1.v20120104-1859,"",1377557475427
deactivated,workbench,org.eclipse.ui.workbench,3.7.1.v20120104-1859,"",1377557479859
activated,workbench,org.eclipse.ui.workbench,3.7.1.v20120104-1859,"",1377557536859
activated,view,org.eclipse.jdt.ui,3.7.2.v20120109-1427,"org.eclipse.jdt.ui.PackageExplorer",1377557541948
activated,editor,org.eclipse.jdt.ui,3.7.2.v20120109-1427,"org.eclipse.jdt.ui.CompilationUnitEditor",1377557542295
executed,command,org.eclipse.ui,3.7.0.v20110928-1505,"org.eclipse.ui.file.save",1377557564518
deactivated,workbench,org.eclipse.ui.workbench,3.7.1.v20120104-1859,"",1377557602385
activated,workbench,org.eclipse.ui.workbench,3.7.1.v20120104-1859,"",1377557604794
deactivated,workbench,org.eclipse.ui.workbench,3.7.1.v20120104-1859,"",1377557606529
activated,workbench,org.eclipse.ui.workbench,3.7.1.v20120104-1859,"",1377557609998
deactivated,workbench,org.eclipse.ui.workbench,3.7.1.v20120104-1859,"",1377557618789
activated,workbench,org.eclipse.ui.workbench,3.7.1.v20120104-1859,"",1377557620601
executed,command,org.eclipse.ui,3.7.0.v20110928-1505,"org.eclipse.ui.edit.text.contentAssist.proposals",1377557624717
deactivated,workbench,org.eclipse.ui.workbench,3.7.1.v20120104-1859,"",1377557628373
activated,workbench,org.eclipse.ui.workbench,3.7.1.v20120104-1859,"",1377557633882
executed,command,org.eclipse.ui,3.7.0.v20110928-1505,"org.eclipse.ui.edit.text.contentAssist.proposals",1377557637751
executed,command,org.eclipse.ui,3.7.0.v20110928-1505,"org.eclipse.ui.edit.text.contentAssist.proposals",1377557641021
executed,command,org.eclipse.ui,3.7.0.v20110928-1505,"org.eclipse.ui.edit.text.contentAssist.proposals",1377557642511
executed,command,org.eclipse.ui,3.7.0.v20110928-1505,"org.eclipse.ui.edit.text.contentAssist.proposals",1377557643335
executed,command,org.eclipse.ui,3.7.0.v20110928-1505,"org.eclipse.ui.edit.paste",1377557651009
executed,command,org.eclipse.ui,3.7.0.v20110928-1505,"org.eclipse.ui.file.save",1377557653258
deactivated,workbench,org.eclipse.ui.workbench,3.7.1.v20120104-1859,"",1377557655650
activated,workbench,org.eclipse.ui.workbench,3.7.1.v20120104-1859,"",1377557659502
deactivated,workbench,org.eclipse.ui.workbench,3.7.1.v20120104-1859,"",1377557672797
activated,workbench,org.eclipse.ui.workbench,3.7.1.v20120104-1859,"",1377557672951
deactivated,workbench,org.eclipse.ui.workbench,3.7.1.v20120104-1859,"",1377557691077
activated,workbench,org.eclipse.ui.workbench,3.7.1.v20120104-1859,"",1377557724475
deactivated,workbench,org.eclipse.ui.workbench,3.7.1.v20120104-1859,"",1377557748214
activated,workbench,org.eclipse.ui.workbench,3.7.1.v20120104-1859,"",1377557803660
deactivated,workbench,org.eclipse.ui.workbench,3.7.1.v20120104-1859,"",1377557806371
activated,workbench,org.eclipse.ui.workbench,3.7.1.v20120104-1859,"",1377557809288
executed,command,org.eclipse.ui,3.7.0.v20110928-1505,"org.eclipse.ui.edit.undo",1377557811289
executed,command,org.eclipse.ui,3.7.0.v20110928-1505,"org.eclipse.ui.edit.undo",1377557811866
deactivated,workbench,org.eclipse.ui.workbench,3.7.1.v20120104-1859,"",1377557826246
activated,workbench,org.eclipse.ui.workbench,3.7.1.v20120104-1859,"",1377558183855
executed,command,org.eclipse.ui,3.7.0.v20110928-1505,"org.eclipse.ui.edit.paste",1377558195851
executed,command,org.eclipse.ui,3.7.0.v20110928-1505,"org.eclipse.ui.file.save",1377558197539
deactivated,workbench,org.eclipse.ui.workbench,3.7.1.v20120104-1859,"",1377558206188
activated,workbench,org.eclipse.ui.workbench,3.7.1.v20120104-1859,"",1377558249006
deactivated,workbench,org.eclipse.ui.workbench,3.7.1.v20120104-1859,"",1377558259201
activated,workbench,org.eclipse.ui.workbench,3.7.1.v20120104-1859,"",1377558384181
executed,command,org.eclipse.ui,3.7.0.v20110928-1505,"org.eclipse.ui.edit.undo",1377558388157
executed,command,org.eclipse.ui,3.7.0.v20110928-1505,"org.eclipse.ui.file.save",1377558412186
deactivated,workbench,org.eclipse.ui.workbench,3.7.1.v20120104-1859,"",1377558415127
activated,workbench,org.eclipse.ui.workbench,3.7.1.v20120104-1859,"",1377558416530
activated,view,com.android.ide.eclipse.ddms,22.0.1.v201305230001--685705,"com.android.ide.eclipse.ddms.views.LogCatView",1377558426086
deactivated,workbench,org.eclipse.ui.workbench,3.7.1.v20120104-1859,"",1377558429644
activated,workbench,org.eclipse.ui.workbench,3.7.1.v20120104-1859,"",1377558431187
activated,view,org.eclipse.ui.console,3.5.100.v20111007_r372,"org.eclipse.ui.console.ConsoleView",1377558434595
deactivated,workbench,org.eclipse.ui.workbench,3.7.1.v20120104-1859,"",1377558436663
activated,workbench,org.eclipse.ui.workbench,3.7.1.v20120104-1859,"",1377558447024
activated,editor,org.eclipse.jdt.ui,3.7.2.v20120109-1427,"org.eclipse.jdt.ui.CompilationUnitEditor",1377558464741
deactivated,workbench,org.eclipse.ui.workbench,3.7.1.v20120104-1859,"",1377558494453
activated,workbench,org.eclipse.ui.workbench,3.7.1.v20120104-1859,"",1377558498289
deactivated,workbench,org.eclipse.ui.workbench,3.7.1.v20120104-1859,"",1377558501967
activated,workbench,org.eclipse.ui.workbench,3.7.1.v20120104-1859,"",1377558504117
deactivated,workbench,org.eclipse.ui.workbench,3.7.1.v20120104-1859,"",1377558506435
activated,workbench,org.eclipse.ui.workbench,3.7.1.v20120104-1859,"",1377558507258
activated,view,org.eclipse.ui.console,3.5.100.v20111007_r372,"org.eclipse.ui.console.ConsoleView",1377558510546
deactivated,workbench,org.eclipse.ui.workbench,3.7.1.v20120104-1859,"",1377558512811
activated,workbench,org.eclipse.ui.workbench,3.7.1.v20120104-1859,"",1377558529062
activated,editor,org.eclipse.jdt.ui,3.7.2.v20120109-1427,"org.eclipse.jdt.ui.CompilationUnitEditor",1377558533149
deactivated,workbench,org.eclipse.ui.workbench,3.7.1.v20120104-1859,"",1377558535253
activated,workbench,org.eclipse.ui.workbench,3.7.1.v20120104-1859,"",1377558537036
deactivated,workbench,org.eclipse.ui.workbench,3.7.1.v20120104-1859,"",1377558538420
activated,workbench,org.eclipse.ui.workbench,3.7.1.v20120104-1859,"",1377558546477
deactivated,workbench,org.eclipse.ui.workbench,3.7.1.v20120104-1859,"",1377558552135
activated,workbench,org.eclipse.ui.workbench,3.7.1.v20120104-1859,"",1377558848957
deactivated,workbench,org.eclipse.ui.workbench,3.7.1.v20120104-1859,"",1377558867080
activated,workbench,org.eclipse.ui.workbench,3.7.1.v20120104-1859,"",1377558870079
executed,command,org.eclipse.ui,3.7.0.v20110928-1505,"org.eclipse.ui.edit.copy",1377558889170
executed,command,org.eclipse.ui,3.7.0.v20110928-1505,"org.eclipse.ui.edit.paste",1377558891883
executed,command,org.eclipse.ui,3.7.0.v20110928-1505,"org.eclipse.ui.file.save",1377558987908
activated,view,org.eclipse.ui.console,3.5.100.v20111007_r372,"org.eclipse.ui.console.ConsoleView",1377559001877
deactivated,workbench,org.eclipse.ui.workbench,3.7.1.v20120104-1859,"",1377559004742
activated,workbench,org.eclipse.ui.workbench,3.7.1.v20120104-1859,"",1377559019725
activated,editor,org.eclipse.jdt.ui,3.7.2.v20120109-1427,"org.eclipse.jdt.ui.CompilationUnitEditor",1377559025111
executed,command,org.eclipse.ui,3.7.0.v20110928-1505,"org.eclipse.ui.file.save",1377559044055
executed,command,org.eclipse.ui,3.7.0.v20110928-1505,"org.eclipse.ui.file.save",1377559055931
deactivated,workbench,org.eclipse.ui.workbench,3.7.1.v20120104-1859,"",1377559083222
activated,workbench,org.eclipse.ui.workbench,3.7.1.v20120104-1859,"",1377559096944
deactivated,workbench,org.eclipse.ui.workbench,3.7.1.v20120104-1859,"",1377559103066
activated,workbench,org.eclipse.ui.workbench,3.7.1.v20120104-1859,"",1377559210709
executed,command,org.eclipse.ui,3.7.0.v20110928-1505,"org.eclipse.ui.file.save",1377559244062
deactivated,workbench,org.eclipse.ui.workbench,3.7.1.v20120104-1859,"",1377559254973
activated,workbench,org.eclipse.ui.workbench,3.7.1.v20120104-1859,"",1377559259859
deactivated,workbench,org.eclipse.ui.workbench,3.7.1.v20120104-1859,"",1377559282122
activated,workbench,org.eclipse.ui.workbench,3.7.1.v20120104-1859,"",1377559282298
deactivated,workbench,org.eclipse.ui.workbench,3.7.1.v20120104-1859,"",1377559298182
activated,workbench,org.eclipse.ui.workbench,3.7.1.v20120104-1859,"",1377559314711
activated,view,org.eclipse.jdt.ui,3.7.2.v20120109-1427,"org.eclipse.jdt.ui.PackageExplorer",1377559316309
deactivated,workbench,org.eclipse.ui.workbench,3.7.1.v20120104-1859,"",1377559317557
activated,workbench,org.eclipse.ui.workbench,3.7.1.v20120104-1859,"",1377559320310
deactivated,workbench,org.eclipse.ui.workbench,3.7.1.v20120104-1859,"",1377559325527
activated,workbench,org.eclipse.ui.workbench,3.7.1.v20120104-1859,"",1377559327076
executed,command,org.eclipse.ui,3.7.0.v20110928-1505,"org.eclipse.ui.edit.delete",1377559327144
deactivated,workbench,org.eclipse.ui.workbench,3.7.1.v20120104-1859,"",1377559333454
executed,command,org.eclipse.ui,3.7.0.v20110928-1505,"org.eclipse.ui.edit.paste",1377559342934
activated,workbench,org.eclipse.ui.workbench,3.7.1.v20120104-1859,"",1377559350600
opened,editor,com.android.ide.eclipse.adt,22.0.1.v201305230001--685705,"com.android.ide.eclipse.editors.CommonXmlEditor",1377559351885
activated,editor,com.android.ide.eclipse.adt,22.0.1.v201305230001--685705,"com.android.ide.eclipse.editors.CommonXmlEditor",1377559352031
deactivated,workbench,org.eclipse.ui.workbench,3.7.1.v20120104-1859,"",1377559352611
activated,workbench,org.eclipse.ui.workbench,3.7.1.v20120104-1859,"",1377559359289
activated,view,org.eclipse.jdt.ui,3.7.2.v20120109-1427,"org.eclipse.jdt.ui.PackageExplorer",1377559359306
deactivated,workbench,org.eclipse.ui.workbench,3.7.1.v20120104-1859,"",1377559365343
executed,command,org.eclipse.ui,3.7.0.v20110928-1505,"org.eclipse.ui.edit.paste",1377559366399
activated,workbench,org.eclipse.ui.workbench,3.7.1.v20120104-1859,"",1377559379651
opened,editor,com.android.ide.eclipse.adt,22.0.1.v201305230001--685705,"com.android.ide.eclipse.editors.CommonXmlEditor",1377559380535
activated,editor,com.android.ide.eclipse.adt,22.0.1.v201305230001--685705,"com.android.ide.eclipse.editors.CommonXmlEditor",1377559380652
activated,view,org.eclipse.jdt.ui,3.7.2.v20120109-1427,"org.eclipse.jdt.ui.PackageExplorer",1377559391561
activated,editor,com.android.ide.eclipse.adt,22.0.1.v201305230001--685705,"com.android.ide.eclipse.editors.CommonXmlEditor",1377559391836
deactivated,workbench,org.eclipse.ui.workbench,3.7.1.v20120104-1859,"",1377559396041
activated,workbench,org.eclipse.ui.workbench,3.7.1.v20120104-1859,"",1377559402719
executed,command,org.eclipse.ui,3.7.0.v20110928-1505,"org.eclipse.ui.edit.paste",1377559408097
deactivated,workbench,org.eclipse.ui.workbench,3.7.1.v20120104-1859,"",1377559410622
activated,workbench,org.eclipse.ui.workbench,3.7.1.v20120104-1859,"",1377559416045
activated,view,org.eclipse.jdt.ui,3.7.2.v20120109-1427,"org.eclipse.jdt.ui.PackageExplorer",1377559417476
activated,editor,com.android.ide.eclipse.adt,22.0.1.v201305230001--685705,"com.android.ide.eclipse.editors.CommonXmlEditor",1377559418374
executed,command,org.eclipse.ui,3.7.0.v20110928-1505,"org.eclipse.ui.edit.paste",1377559421297
deactivated,workbench,org.eclipse.ui.workbench,3.7.1.v20120104-1859,"",1377559423582
activated,workbench,org.eclipse.ui.workbench,3.7.1.v20120104-1859,"",1377559426397
deactivated,workbench,org.eclipse.ui.workbench,3.7.1.v20120104-1859,"",1377559428442
activated,workbench,org.eclipse.ui.workbench,3.7.1.v20120104-1859,"",1377559430911
deactivated,workbench,org.eclipse.ui.workbench,3.7.1.v20120104-1859,"",1377559439346
activated,workbench,org.eclipse.ui.workbench,3.7.1.v20120104-1859,"",1377559440262
deactivated,workbench,org.eclipse.ui.workbench,3.7.1.v20120104-1859,"",1377559445363
activated,workbench,org.eclipse.ui.workbench,3.7.1.v20120104-1859,"",1377559449901
executed,command,org.eclipse.ui,3.7.0.v20110928-1505,"org.eclipse.ui.edit.paste",1377559450840
deactivated,workbench,org.eclipse.ui.workbench,3.7.1.v20120104-1859,"",1377559456786
activated,workbench,org.eclipse.ui.workbench,3.7.1.v20120104-1859,"",1377559458502
deactivated,workbench,org.eclipse.ui.workbench,3.7.1.v20120104-1859,"",1377559462230
activated,workbench,org.eclipse.ui.workbench,3.7.1.v20120104-1859,"",1377559464632
activated,view,org.eclipse.jdt.ui,3.7.2.v20120109-1427,"org.eclipse.jdt.ui.PackageExplorer",1377559466192
activated,editor,com.android.ide.eclipse.adt,22.0.1.v201305230001--685705,"com.android.ide.eclipse.editors.CommonXmlEditor",1377559466511
deactivated,workbench,org.eclipse.ui.workbench,3.7.1.v20120104-1859,"",1377559470298
activated,workbench,org.eclipse.ui.workbench,3.7.1.v20120104-1859,"",1377559472516
deactivated,workbench,org.eclipse.ui.workbench,3.7.1.v20120104-1859,"",1377559474889
activated,workbench,org.eclipse.ui.workbench,3.7.1.v20120104-1859,"",1377559476306
deactivated,workbench,org.eclipse.ui.workbench,3.7.1.v20120104-1859,"",1377559479418
activated,workbench,org.eclipse.ui.workbench,3.7.1.v20120104-1859,"",1377559493962
activated,view,org.eclipse.jdt.ui,3.7.2.v20120109-1427,"org.eclipse.jdt.ui.PackageExplorer",1377559496871
deactivated,workbench,org.eclipse.ui.workbench,3.7.1.v20120104-1859,"",1377559506358
activated,workbench,org.eclipse.ui.workbench,3.7.1.v20120104-1859,"",1377559515339
deactivated,workbench,org.eclipse.ui.workbench,3.7.1.v20120104-1859,"",1377559525946
activated,workbench,org.eclipse.ui.workbench,3.7.1.v20120104-1859,"",1377559532046
error,log,,,"Participant 'com.android.ide.eclipse.adt.internal.refactoring.core.androidTypeMoveParticipant' removed due to the following exception",1377559532300
error,log,,,"Participant 'org.eclipse.jpt.jpa.core.ltk.jpaMoveTypeParticipant' removed due to the following exception",1377559532381
deactivated,workbench,org.eclipse.ui.workbench,3.7.1.v20120104-1859,"",1377559532551
activated,workbench,org.eclipse.ui.workbench,3.7.1.v20120104-1859,"",1377559534251
activated,editor,com.android.ide.eclipse.adt,22.0.1.v201305230001--685705,"com.android.ide.eclipse.editors.manifest.ManifestEditor",1377559540843
deactivated,workbench,org.eclipse.ui.workbench,3.7.1.v20120104-1859,"",1377559548280
activated,workbench,org.eclipse.ui.workbench,3.7.1.v20120104-1859,"",1377559568968
activated,view,org.eclipse.jdt.ui,3.7.2.v20120109-1427,"org.eclipse.jdt.ui.PackageExplorer",1377559570748
activated,editor,org.eclipse.jdt.ui,3.7.2.v20120109-1427,"org.eclipse.jdt.ui.CompilationUnitEditor",1377559571176
activated,view,org.eclipse.jdt.ui,3.7.2.v20120109-1427,"org.eclipse.jdt.ui.PackageExplorer",1377559572832
deactivated,workbench,org.eclipse.ui.workbench,3.7.1.v20120104-1859,"",1377559576832
executed,command,org.eclipse.ui,3.7.0.v20110928-1505,"org.eclipse.ui.edit.paste",1377559583986
activated,workbench,org.eclipse.ui.workbench,3.7.1.v20120104-1859,"",1377559587583
opened,editor,org.eclipse.jdt.ui,3.7.2.v20120109-1427,"org.eclipse.jdt.ui.CompilationUnitEditor",1377559587835
activated,editor,org.eclipse.jdt.ui,3.7.2.v20120109-1427,"org.eclipse.jdt.ui.CompilationUnitEditor",1377559587933
deactivated,workbench,org.eclipse.ui.workbench,3.7.1.v20120104-1859,"",1377559590838
activated,workbench,org.eclipse.ui.workbench,3.7.1.v20120104-1859,"",1377559593690
deactivated,workbench,org.eclipse.ui.workbench,3.7.1.v20120104-1859,"",1377559608944
activated,workbench,org.eclipse.ui.workbench,3.7.1.v20120104-1859,"",1377559610395
deactivated,workbench,org.eclipse.ui.workbench,3.7.1.v20120104-1859,"",1377559615373
activated,workbench,org.eclipse.ui.workbench,3.7.1.v20120104-1859,"",1377559621050
executed,command,org.eclipse.ui,3.7.0.v20110928-1505,"org.eclipse.ui.edit.paste",1377559622699
deactivated,workbench,org.eclipse.ui.workbench,3.7.1.v20120104-1859,"",1377559635627
activated,workbench,org.eclipse.ui.workbench,3.7.1.v20120104-1859,"",1377559647970
executed,command,org.eclipse.jdt.ui,3.7.2.v20120109-1427,"org.eclipse.jdt.ui.edit.text.java.organize.imports",1377559648108
deactivated,workbench,org.eclipse.ui.workbench,3.7.1.v20120104-1859,"",1377559654142
activated,workbench,org.eclipse.ui.workbench,3.7.1.v20120104-1859,"",1377559654279
deactivated,workbench,org.eclipse.ui.workbench,3.7.1.v20120104-1859,"",1377559659968
activated,workbench,org.eclipse.ui.workbench,3.7.1.v20120104-1859,"",1377559662371
deactivated,workbench,org.eclipse.ui.workbench,3.7.1.v20120104-1859,"",1377559667022
activated,workbench,org.eclipse.ui.workbench,3.7.1.v20120104-1859,"",1377559667173
deactivated,workbench,org.eclipse.ui.workbench,3.7.1.v20120104-1859,"",1377559667268
activated,workbench,org.eclipse.ui.workbench,3.7.1.v20120104-1859,"",1377559669563
deactivated,workbench,org.eclipse.ui.workbench,3.7.1.v20120104-1859,"",1377559671759
activated,workbench,org.eclipse.ui.workbench,3.7.1.v20120104-1859,"",1377559676430
executed,command,org.eclipse.ui,3.7.0.v20110928-1505,"org.eclipse.ui.edit.paste",1377559680219
executed,command,org.eclipse.ui,3.7.0.v20110928-1505,"org.eclipse.ui.file.save",1377559682486
deactivated,workbench,org.eclipse.ui.workbench,3.7.1.v20120104-1859,"",1377559686106
activated,workbench,org.eclipse.ui.workbench,3.7.1.v20120104-1859,"",1377559686232
deactivated,workbench,org.eclipse.ui.workbench,3.7.1.v20120104-1859,"",1377559693038
activated,workbench,org.eclipse.ui.workbench,3.7.1.v20120104-1859,"",1377559697612
executed,command,org.eclipse.ui,3.7.0.v20110928-1505,"org.eclipse.ui.edit.paste",1377559702201
executed,command,org.eclipse.ui,3.7.0.v20110928-1505,"org.eclipse.ui.file.save",1377559706569
executed,command,org.eclipse.ui.editors,3.7.0.v20110928-1504,"org.eclipse.ui.edit.text.folding.expand",1377559710413
executed,command,org.eclipse.ui.editors,3.7.0.v20110928-1504,"org.eclipse.ui.edit.text.folding.collapse",1377559710427
deactivated,workbench,org.eclipse.ui.workbench,3.7.1.v20120104-1859,"",1377559713400
activated,workbench,org.eclipse.ui.workbench,3.7.1.v20120104-1859,"",1377559742814
executed,command,org.eclipse.ui,3.7.0.v20110928-1505,"org.eclipse.ui.edit.paste",1377559747632
executed,command,org.eclipse.ui,3.7.0.v20110928-1505,"org.eclipse.ui.file.save",1377559748842
deactivated,workbench,org.eclipse.ui.workbench,3.7.1.v20120104-1859,"",1377559753486
activated,workbench,org.eclipse.ui.workbench,3.7.1.v20120104-1859,"",1377559779403
executed,command,org.eclipse.jdt.ui,3.7.2.v20120109-1427,"org.eclipse.jdt.ui.edit.text.java.organize.imports",1377559779668
deactivated,workbench,org.eclipse.ui.workbench,3.7.1.v20120104-1859,"",1377559804021
activated,workbench,org.eclipse.ui.workbench,3.7.1.v20120104-1859,"",1377559804215
executed,command,org.eclipse.ui,3.7.0.v20110928-1505,"org.eclipse.ui.file.save",1377559812735
deactivated,workbench,org.eclipse.ui.workbench,3.7.1.v20120104-1859,"",1377559825004
activated,workbench,org.eclipse.ui.workbench,3.7.1.v20120104-1859,"",1377559859858
deactivated,workbench,org.eclipse.ui.workbench,3.7.1.v20120104-1859,"",1377559876092
activated,workbench,org.eclipse.ui.workbench,3.7.1.v20120104-1859,"",1377559876277
executed,command,org.eclipse.ui.editors,3.7.0.v20110928-1504,"org.eclipse.ui.edit.text.folding.expand",1377559881745
executed,command,org.eclipse.ui.editors,3.7.0.v20110928-1504,"org.eclipse.ui.edit.text.folding.collapse",1377559881762
deactivated,workbench,org.eclipse.ui.workbench,3.7.1.v20120104-1859,"",1377559887288
activated,workbench,org.eclipse.ui.workbench,3.7.1.v20120104-1859,"",1377559899243
deactivated,workbench,org.eclipse.ui.workbench,3.7.1.v20120104-1859,"",1377559901416
activated,workbench,org.eclipse.ui.workbench,3.7.1.v20120104-1859,"",1377560022990
deactivated,workbench,org.eclipse.ui.workbench,3.7.1.v20120104-1859,"",1377560033247
activated,workbench,org.eclipse.ui.workbench,3.7.1.v20120104-1859,"",1377560034362
deactivated,workbench,org.eclipse.ui.workbench,3.7.1.v20120104-1859,"",1377560037957
activated,workbench,org.eclipse.ui.workbench,3.7.1.v20120104-1859,"",1377560054873
executed,command,org.eclipse.ui,3.7.0.v20110928-1505,"org.eclipse.ui.edit.paste",1377560061078
executed,command,org.eclipse.ui,3.7.0.v20110928-1505,"org.eclipse.ui.file.save",1377560061966
deactivated,workbench,org.eclipse.ui.workbench,3.7.1.v20120104-1859,"",1377560063545
activated,workbench,org.eclipse.ui.workbench,3.7.1.v20120104-1859,"",1377560070845
deactivated,workbench,org.eclipse.ui.workbench,3.7.1.v20120104-1859,"",1377560074628
activated,workbench,org.eclipse.ui.workbench,3.7.1.v20120104-1859,"",1377560079245
executed,command,org.eclipse.ui,3.7.0.v20110928-1505,"org.eclipse.ui.edit.paste",1377560084709
