what,kind,bundleId,bundleVersion,description,time
started,bundle,org.eclipse.wst.xml.core,1.1.602.v201201091944,"org.eclipse.wst.xml.core",1377735213064
started,bundle,org.eclipse.wst.xml.ui,1.1.202.v201112071516,"org.eclipse.wst.xml.ui",1377735213064
started,bundle,org.polarion.eclipse.team.svn.connector.svnkit16l,2.2.2.I20120210-1700,"org.polarion.eclipse.team.svn.connector.svnkit16l",1377735213064
os,sysinfo,,,"macosx",1377735213069
arch,sysinfo,,,"x86_64",1377735213069
ws,sysinfo,,,"cocoa",1377735213069
locale,sysinfo,,,"en_US",1377735213069
processors,sysinfo,,,"4",1377735213069
java.runtime.name,sysinfo,,,"Java(TM) SE Runtime Environment",1377735213069
java.runtime.version,sysinfo,,,"1.6.0_51-b11-456-11M4508",1377735213069
java.specification.name,sysinfo,,,"Java Platform API Specification",1377735213069
java.specification.vendor,sysinfo,,,"Sun Microsystems Inc.",1377735213069
java.specification.version,sysinfo,,,"1.6",1377735213069
java.vendor,sysinfo,,,"Apple Inc.",1377735213069
java.version,sysinfo,,,"1.6.0_51",1377735213069
java.vm.info,sysinfo,,,"mixed mode",1377735213069
java.vm.name,sysinfo,,,"Java HotSpot(TM) 64-Bit Server VM",1377735213069
java.vm.specification.name,sysinfo,,,"Java Virtual Machine Specification",1377735213069
java.vm.specification.vendor,sysinfo,,,"Sun Microsystems Inc.",1377735213069
java.vm.specification.version,sysinfo,,,"1.0",1377735213069
java.vm.vendor,sysinfo,,,"Apple Inc.",1377735213069
java.vm.version,sysinfo,,,"20.51-b01-456",1377735213069
started,bundle,org.eclipse.m2e.usagedata,1.0.200.20111228-1245,"org.eclipse.m2e.usagedata",1377735213073
started,bundle,org.eclipse.update.scheduler,3.2.300.v20100512,"org.eclipse.update.scheduler",1377735213215
started,bundle,org.eclipse.update.configurator,3.3.100.v20100512,"org.eclipse.update.configurator",1377735214231
started,bundle,org.eclipse.update.core,3.2.500.v20110330,"org.eclipse.update.core",1377735214310
started,bundle,org.eclipse.wb.discovery.core,1.5.2.r37x201303061516,"org.eclipse.wb.discovery.core",1377735214427
started,bundle,org.eclipse.wb.discovery.ui,1.5.2.r37x201303061516,"org.eclipse.wb.discovery.ui",1377735218903
error,log,,,"Failed to update a TargetChangeListener.",1377735220219
started,bundle,org.eclipse.compare,3.5.202.R37x_v20111109-0800,"org.eclipse.compare",1377735234247
opened,view,org.eclipse.ui.console,3.5.100.v20111007_r372,"org.eclipse.ui.console.ConsoleView",1377735236422
started,bundle,org.eclipse.cdt.dsf,2.2.0.201202111925,"org.eclipse.cdt.dsf",1377735236577
started,bundle,org.eclipse.cdt.dsf.gdb,4.0.2.201202111925,"org.eclipse.cdt.dsf.gdb",1377735236579
started,bundle,org.eclipse.cdt.dsf.gdb.ui,2.2.1.201202111925,"org.eclipse.cdt.dsf.gdb.ui",1377735236601
started,bundle,com.android.ide.eclipse.ndk,21.1.0.v201302060044-569685,"com.android.ide.eclipse.ndk",1377735243532
activated,view,com.android.ide.eclipse.ddms,22.0.1.v201305230001--685705,"com.android.ide.eclipse.ddms.views.LogCatView",1377735341790
activated,workbench,org.eclipse.ui.workbench,3.7.1.v20120104-1859,"",1377735341907
activated,editor,org.eclipse.jdt.ui,3.7.2.v20120109-1427,"org.eclipse.jdt.ui.CompilationUnitEditor",1377735342038
activated,view,com.android.ide.eclipse.ddms,22.0.1.v201305230001--685705,"com.android.ide.eclipse.ddms.views.LogCatView",1377735344108
activated,view,org.eclipse.jdt.ui,3.7.2.v20120109-1427,"org.eclipse.jdt.ui.PackageExplorer",1377735344345
activated,view,com.android.ide.eclipse.ddms,22.0.1.v201305230001--685705,"com.android.ide.eclipse.ddms.views.LogCatView",1377735345194
deactivated,workbench,org.eclipse.ui.workbench,3.7.1.v20120104-1859,"",1377735361427
activated,workbench,org.eclipse.ui.workbench,3.7.1.v20120104-1859,"",1377735362425
deactivated,workbench,org.eclipse.ui.workbench,3.7.1.v20120104-1859,"",1377735364503
activated,workbench,org.eclipse.ui.workbench,3.7.1.v20120104-1859,"",1377735545440
deactivated,workbench,org.eclipse.ui.workbench,3.7.1.v20120104-1859,"",1377735560504
activated,workbench,org.eclipse.ui.workbench,3.7.1.v20120104-1859,"",1377735601591
activated,view,org.eclipse.ui.console,3.5.100.v20111007_r372,"org.eclipse.ui.console.ConsoleView",1377735614171
activated,view,com.android.ide.eclipse.ddms,22.0.1.v201305230001--685705,"com.android.ide.eclipse.ddms.views.LogCatView",1377735624465
deactivated,workbench,org.eclipse.ui.workbench,3.7.1.v20120104-1859,"",1377735643918
started,bundle,com.github.eclipsecolortheme,0.12.0.201207240713,"com.github.eclipsecolortheme",1377735648579
activated,workbench,org.eclipse.ui.workbench,3.7.1.v20120104-1859,"",1377735742449
executed,command,org.eclipse.ui,3.7.0.v20110928-1505,"org.eclipse.ui.window.preferences",1377735742535
deactivated,workbench,org.eclipse.ui.workbench,3.7.1.v20120104-1859,"",1377735744505
activated,workbench,org.eclipse.ui.workbench,3.7.1.v20120104-1859,"",1377735752838
activated,view,org.eclipse.ui.console,3.5.100.v20111007_r372,"org.eclipse.ui.console.ConsoleView",1377735752996
deactivated,workbench,org.eclipse.ui.workbench,3.7.1.v20120104-1859,"",1377735758743
activated,workbench,org.eclipse.ui.workbench,3.7.1.v20120104-1859,"",1377735809680
deactivated,workbench,org.eclipse.ui.workbench,3.7.1.v20120104-1859,"",1377735811566
activated,workbench,org.eclipse.ui.workbench,3.7.1.v20120104-1859,"",1377735823562
activated,view,com.android.ide.eclipse.ddms,22.0.1.v201305230001--685705,"com.android.ide.eclipse.ddms.views.LogCatView",1377735825784
activated,view,org.eclipse.ui.console,3.5.100.v20111007_r372,"org.eclipse.ui.console.ConsoleView",1377735827707
activated,view,com.android.ide.eclipse.ddms,22.0.1.v201305230001--685705,"com.android.ide.eclipse.ddms.views.LogCatView",1377735833409
activated,editor,org.eclipse.jdt.ui,3.7.2.v20120109-1427,"org.eclipse.jdt.ui.CompilationUnitEditor",1377735837439
deactivated,workbench,org.eclipse.ui.workbench,3.7.1.v20120104-1859,"",1377735838658
activated,workbench,org.eclipse.ui.workbench,3.7.1.v20120104-1859,"",1377735934768
deactivated,workbench,org.eclipse.ui.workbench,3.7.1.v20120104-1859,"",1377735997845
activated,workbench,org.eclipse.ui.workbench,3.7.1.v20120104-1859,"",1377736009493
deactivated,workbench,org.eclipse.ui.workbench,3.7.1.v20120104-1859,"",1377736010686
activated,workbench,org.eclipse.ui.workbench,3.7.1.v20120104-1859,"",1377736032187
deactivated,workbench,org.eclipse.ui.workbench,3.7.1.v20120104-1859,"",1377736210209
activated,workbench,org.eclipse.ui.workbench,3.7.1.v20120104-1859,"",1377736431961
deactivated,workbench,org.eclipse.ui.workbench,3.7.1.v20120104-1859,"",1377736433458
activated,workbench,org.eclipse.ui.workbench,3.7.1.v20120104-1859,"",1377738313174
deactivated,workbench,org.eclipse.ui.workbench,3.7.1.v20120104-1859,"",1377738316856
activated,workbench,org.eclipse.ui.workbench,3.7.1.v20120104-1859,"",1377738331164
executed,command,org.eclipse.ui,3.7.0.v20110928-1505,"org.eclipse.ui.edit.paste",1377738335252
executed,command,org.eclipse.jdt.ui,3.7.2.v20120109-1427,"org.eclipse.jdt.ui.edit.text.java.organize.imports",1377738345040
deactivated,workbench,org.eclipse.ui.workbench,3.7.1.v20120104-1859,"",1377738355756
activated,workbench,org.eclipse.ui.workbench,3.7.1.v20120104-1859,"",1377738402458
executed,command,org.eclipse.ui,3.7.0.v20110928-1505,"org.eclipse.ui.edit.paste",1377738431548
deactivated,workbench,org.eclipse.ui.workbench,3.7.1.v20120104-1859,"",1377738436359
activated,workbench,org.eclipse.ui.workbench,3.7.1.v20120104-1859,"",1377738445091
executed,command,org.eclipse.jdt.ui,3.7.2.v20120109-1427,"org.eclipse.jdt.ui.edit.text.java.organize.imports",1377738445285
deactivated,workbench,org.eclipse.ui.workbench,3.7.1.v20120104-1859,"",1377738491557
activated,workbench,org.eclipse.ui.workbench,3.7.1.v20120104-1859,"",1377738492919
deactivated,workbench,org.eclipse.ui.workbench,3.7.1.v20120104-1859,"",1377738496530
activated,workbench,org.eclipse.ui.workbench,3.7.1.v20120104-1859,"",1377738507374
deactivated,workbench,org.eclipse.ui.workbench,3.7.1.v20120104-1859,"",1377738508065
activated,workbench,org.eclipse.ui.workbench,3.7.1.v20120104-1859,"",1377738508266
deactivated,workbench,org.eclipse.ui.workbench,3.7.1.v20120104-1859,"",1377738514392
activated,workbench,org.eclipse.ui.workbench,3.7.1.v20120104-1859,"",1377738574283
deactivated,workbench,org.eclipse.ui.workbench,3.7.1.v20120104-1859,"",1377738576992
activated,workbench,org.eclipse.ui.workbench,3.7.1.v20120104-1859,"",1377738577988
deactivated,workbench,org.eclipse.ui.workbench,3.7.1.v20120104-1859,"",1377738582677
activated,workbench,org.eclipse.ui.workbench,3.7.1.v20120104-1859,"",1377738629501
activated,view,org.eclipse.ui.console,3.5.100.v20111007_r372,"org.eclipse.ui.console.ConsoleView",1377738632809
deactivated,workbench,org.eclipse.ui.workbench,3.7.1.v20120104-1859,"",1377738641341
activated,workbench,org.eclipse.ui.workbench,3.7.1.v20120104-1859,"",1377738891859
activated,view,com.android.ide.eclipse.ddms,22.0.1.v201305230001--685705,"com.android.ide.eclipse.ddms.views.LogCatView",1377738893244
deactivated,workbench,org.eclipse.ui.workbench,3.7.1.v20120104-1859,"",1377738897089
activated,workbench,org.eclipse.ui.workbench,3.7.1.v20120104-1859,"",1377738898538
activated,view,org.eclipse.ui.console,3.5.100.v20111007_r372,"org.eclipse.ui.console.ConsoleView",1377738898741
deactivated,workbench,org.eclipse.ui.workbench,3.7.1.v20120104-1859,"",1377738900728
activated,workbench,org.eclipse.ui.workbench,3.7.1.v20120104-1859,"",1377739154021
deactivated,workbench,org.eclipse.ui.workbench,3.7.1.v20120104-1859,"",1377739206903
activated,workbench,org.eclipse.ui.workbench,3.7.1.v20120104-1859,"",1377739209146
deactivated,workbench,org.eclipse.ui.workbench,3.7.1.v20120104-1859,"",1377739213261
activated,workbench,org.eclipse.ui.workbench,3.7.1.v20120104-1859,"",1377739283343
deactivated,workbench,org.eclipse.ui.workbench,3.7.1.v20120104-1859,"",1377739283886
activated,workbench,org.eclipse.ui.workbench,3.7.1.v20120104-1859,"",1377739284818
closed,workbench,org.eclipse.ui.workbench,3.7.1.v20120104-1859,"",1377739285578
stopped,bundle,org.eclipse.m2e.logback.configuration,1.0.200.20111228-1245,"org.eclipse.m2e.logback.configuration",1377739288712
stopped,bundle,com.google.gdt.eclipse.maven.e37,3.2.2.v201303261859-rel-r37,"com.google.gdt.eclipse.maven.e37",1377739288712
stopped,bundle,org.eclipse.m2e.discovery,1.0.200.20111228-1245,"org.eclipse.m2e.discovery",1377739288713
stopped,bundle,org.eclipse.m2e.refactoring,1.0.200.20111228-1245,"org.eclipse.m2e.refactoring",1377739288713
stopped,bundle,org.eclipse.m2e.editor,1.0.200.20111228-1245,"org.eclipse.m2e.editor",1377739288713
stopped,bundle,org.eclipse.m2e.editor.xml,1.0.200.20111228-1245,"org.eclipse.m2e.editor.xml",1377739288713
stopped,bundle,org.eclipse.m2e.jdt,1.0.200.20111228-1245,"org.eclipse.m2e.jdt",1377739288713
stopped,bundle,org.eclipse.m2e.launching,1.0.200.20111228-1245,"org.eclipse.m2e.launching",1377739288713
stopped,bundle,org.eclipse.m2e.usagedata,1.0.200.20111228-1245,"org.eclipse.m2e.usagedata",1377739288713
stopped,bundle,com.google.appengine.eclipse.datatools,3.2.2.v201303261859-rel-r37,"com.google.appengine.eclipse.datatools",1377739288713
stopped,bundle,com.google.appengine.eclipse.webtools,3.2.2.v201303261859-rel-r37,"com.google.appengine.eclipse.webtools",1377739288713
stopped,bundle,com.google.gdt.eclipse.mobile.android,3.2.2.v201303261859-rel-r37,"com.google.gdt.eclipse.mobile.android",1377739288714
stopped,bundle,com.google.gdt.eclipse.appengine.swarm_backend,3.2.2.v201303261859-rel-r37,"com.google.gdt.eclipse.appengine.swarm_backend",1377739288714
stopped,bundle,com.google.gdt.eclipse.suite.ext,3.2.2.v201303261859-rel-r37,"com.google.gdt.eclipse.suite.ext",1377739288715
stopped,bundle,com.google.gdt.eclipse.appengine.swarm,3.2.2.v201303261859-rel-r37,"com.google.gdt.eclipse.appengine.swarm",1377739288715
stopped,bundle,com.google.gdt.eclipse.appengine.rpc,3.2.2.v201303261859-rel-r37,"com.google.gdt.eclipse.appengine.rpc",1377739288716
stopped,bundle,com.google.gdt.eclipse.gph.e36,3.2.2.v201303261859-rel-r37,"com.google.gdt.eclipse.gph.e36",1377739288716
stopped,bundle,com.google.gdt.eclipse.gph.hge,3.2.2.v201303261859-rel-r37,"com.google.gdt.eclipse.gph.hge",1377739288716
stopped,bundle,com.google.gdt.eclipse.gph.subclipse,3.2.2.v201303261859-rel-r37,"com.google.gdt.eclipse.gph.subclipse",1377739288716
stopped,bundle,com.google.gdt.eclipse.gph.subversive,3.2.2.v201303261859-rel-r37,"com.google.gdt.eclipse.gph.subversive",1377739288716
stopped,bundle,com.google.gdt.eclipse.gph,3.2.2.v201303261859-rel-r37,"com.google.gdt.eclipse.gph",1377739288716
stopped,bundle,com.google.gdt.eclipse.maven,3.2.2.v201303261859-rel-r37,"com.google.gdt.eclipse.maven",1377739288716
stopped,bundle,com.google.gdt.eclipse.suite,3.2.2.v201303261859-rel-r37,"com.google.gdt.eclipse.suite",1377739288716
stopped,bundle,com.google.gdt.eclipse.appsmarketplace,3.2.2.v201303261859-rel-r37,"com.google.gdt.eclipse.appsmarketplace",1377739288717
stopped,bundle,com.google.gdt.eclipse.managedapis,3.2.2.v201303261859-rel-r37,"com.google.gdt.eclipse.managedapis",1377739288720
stopped,bundle,com.google.appengine.eclipse.core,3.2.2.v201303261859-rel-r37,"com.google.appengine.eclipse.core",1377739288753
stopped,bundle,com.google.gdt.eclipse.login,3.2.2.v201303261859-rel-r37,"com.google.gdt.eclipse.login",1377739288753
stopped,bundle,com.google.gwt.eclipse.oophm,3.2.2.v201303261859-rel-r37,"com.google.gwt.eclipse.oophm",1377739288753
stopped,bundle,com.google.gwt.eclipse.core,3.2.2.v201303261859-rel-r37,"com.google.gwt.eclipse.core",1377739288889
stopped,bundle,com.google.gdt.eclipse.core,3.2.2.v201303261859-rel-r37,"com.google.gdt.eclipse.core",1377739288889
stopped,bundle,com.google.gdt.eclipse.platform,3.2.2.v201303261859-rel-r37,"com.google.gdt.eclipse.platform",1377739288889
stopped,bundle,com.google.gdt.eclipse.platform.e37,3.2.2.v201303261859-rel-r37,"com.google.gdt.eclipse.platform.e37",1377739288889
stopped,bundle,org.eclipse.cdt,8.0.2.201202111925,"org.eclipse.cdt",1377739288889
stopped,bundle,org.eclipse.cdt.doc.user,5.1.1.201202111925,"org.eclipse.cdt.doc.user",1377739288889
stopped,bundle,com.android.ide.eclipse.ndk,21.1.0.v201302060044-569685,"com.android.ide.eclipse.ndk",1377739288889
stopped,bundle,overlay.com.android.ide.eclipse.adt.overlay,22.0.1.v201305230001--685705,"overlay.com.android.ide.eclipse.adt.overlay",1377739288889
stopped,bundle,com.android.ide.eclipse.adt,22.0.1.v201305230001--685705,"com.android.ide.eclipse.adt",1377739288890
stopped,bundle,org.eclim.jdt,1.7.14,"org.eclim.jdt",1377739288890
stopped,bundle,org.eclipse.ui.cheatsheets,3.4.100.v20110425,"org.eclipse.ui.cheatsheets",1377739288890
stopped,bundle,org.eclipse.help.ui,3.5.101.r37_20110819,"org.eclipse.help.ui",1377739288890
stopped,bundle,org.eclipse.help.webapp,3.6.1.r37_20110929,"org.eclipse.help.webapp",1377739288891
stopped,bundle,org.eclipse.epp.mpc.ui,1.1.1.I20110907-0947,"org.eclipse.epp.mpc.ui",1377739288910
stopped,bundle,org.eclipse.epp.usagedata.ui,1.3.1.R201106061540,"org.eclipse.epp.usagedata.ui",1377739288910
stopped,bundle,org.eclipse.ui.intro.universal,3.2.500.v20110510,"org.eclipse.ui.intro.universal",1377739288910
stopped,bundle,org.eclipse.ui.intro,3.4.100.v20110425,"org.eclipse.ui.intro",1377739288910
stopped,bundle,org.eclipse.help.base,3.6.2.v201202080800,"org.eclipse.help.base",1377739288910
stopped,bundle,org.eclipse.equinox.http.jetty,2.0.100.v20110502,"org.eclipse.equinox.http.jetty",1377739288910
stopped,bundle,org.eclipse.m2e.core.ui,1.0.200.20111228-1245,"org.eclipse.m2e.core.ui",1377739288910
stopped,bundle,org.eclipse.m2e.core,1.0.200.20111228-1245,"org.eclipse.m2e.core",1377739288910
stopped,bundle,code.satyagraha.gfm.viewer.plugin,1.2.1.201307251838,"code.satyagraha.gfm.viewer.plugin",1377739288910
stopped,bundle,com.android.ide.eclipse.gldebugger,22.0.1.v201305230001--685705,"com.android.ide.eclipse.gldebugger",1377739288910
stopped,bundle,com.android.ide.eclipse.hierarchyviewer,22.0.1.v201305230001--685705,"com.android.ide.eclipse.hierarchyviewer",1377739288911
stopped,bundle,com.android.ide.eclipse.traceview,22.0.1.v201305230001--685705,"com.android.ide.eclipse.traceview",1377739288911
stopped,bundle,com.android.ide.eclipse.ddms,22.0.1.v201305230001--685705,"com.android.ide.eclipse.ddms",1377739288914
stopped,bundle,com.android.ide.eclipse.base,22.0.1.v201305230001--685705,"com.android.ide.eclipse.base",1377739288914
stopped,bundle,com.github.eclipsecolortheme,0.12.0.201207240713,"com.github.eclipsecolortheme",1377739288914
stopped,bundle,com.google.appengine.eclipse.sdkbundle,1.7.7,"com.google.appengine.eclipse.sdkbundle",1377739288914
stopped,bundle,com.google.gdt.eclipse.designer.UiBinder,3.1.2.r37x201303061530,"com.google.gdt.eclipse.designer.UiBinder",1377739288915
stopped,bundle,com.google.gdt.eclipse.designer.gpe,3.1.2.r37x201303061641,"com.google.gdt.eclipse.designer.gpe",1377739288915
stopped,bundle,com.google.gdt.eclipse.designer,3.1.2.r37x201303061530,"com.google.gdt.eclipse.designer",1377739288915
stopped,bundle,com.google.gdt.eclipse.designer.hosted.2_0.webkit,3.1.2.r37x201303061525,"com.google.gdt.eclipse.designer.hosted.2_0.webkit",1377739288915
stopped,bundle,com.google.gdt.eclipse.designer.hosted.2_0,3.1.2.r37x201303061525,"com.google.gdt.eclipse.designer.hosted.2_0",1377739288915
stopped,bundle,com.google.gdt.eclipse.designer.hosted.2_2.webkit,3.1.2.r37x201303061525,"com.google.gdt.eclipse.designer.hosted.2_2.webkit",1377739288915
stopped,bundle,com.google.gdt.eclipse.designer.hosted.2_2,3.1.2.r37x201303061525,"com.google.gdt.eclipse.designer.hosted.2_2",1377739288915
stopped,bundle,com.google.gdt.eclipse.designer.hosted,3.1.2.r37x201303061525,"com.google.gdt.eclipse.designer.hosted",1377739288915
stopped,bundle,com.google.gdt.eclipse.designer.hosted.2_0.super,3.1.2.r37x201303061525,"com.google.gdt.eclipse.designer.hosted.2_0.super",1377739288915
stopped,bundle,com.google.gdt.eclipse.designer.hosted.lib,3.1.2.r37x201303061525,"com.google.gdt.eclipse.designer.hosted.lib",1377739288915
stopped,bundle,com.google.gdt.eclipse.platform.shared,3.2.2.v201303261859-rel-r37,"com.google.gdt.eclipse.platform.shared",1377739288915
stopped,bundle,com.google.gwt.eclipse.sdkbundle,2.5.1,"com.google.gwt.eclipse.sdkbundle",1377739288916
stopped,bundle,org.eclipse.mylyn.ide.ant,3.8.3.v20130107-0100,"org.eclipse.mylyn.ide.ant",1377739288916
stopped,bundle,org.eclipse.ant.ui,3.5.101.v20120110-1739,"org.eclipse.ant.ui",1377739288916
stopped,bundle,org.eclipse.ant.launching,1.0.101.v20120110-1739,"org.eclipse.ant.launching",1377739288916
stopped,bundle,org.eclim.cdt,1.7.14,"org.eclim.cdt",1377739288916
stopped,bundle,org.eclipse.cdt.codan.checkers.ui,1.0.0.201202111925,"org.eclipse.cdt.codan.checkers.ui",1377739288916
stopped,bundle,org.eclipse.cdt.codan.checkers,1.0.1.201202111925,"org.eclipse.cdt.codan.checkers",1377739288916
stopped,bundle,org.eclipse.cdt.codan.ui.cxx,2.0.0.201202111925,"org.eclipse.cdt.codan.ui.cxx",1377739288916
stopped,bundle,org.eclipse.cdt.codan.core.cxx,1.0.0.201202111925,"org.eclipse.cdt.codan.core.cxx",1377739288916
stopped,bundle,org.eclipse.cdt.debug.mi.ui,6.1.1.201202111925,"org.eclipse.cdt.debug.mi.ui",1377739288917
stopped,bundle,org.eclipse.cdt.debug.mi.core,7.1.1.201202111925,"org.eclipse.cdt.debug.mi.core",1377739288917
stopped,bundle,org.eclipse.cdt.dsf.gdb.ui,2.2.1.201202111925,"org.eclipse.cdt.dsf.gdb.ui",1377739288917
stopped,bundle,org.eclipse.cdt.dsf.ui,2.2.1.201202111925,"org.eclipse.cdt.dsf.ui",1377739288917
stopped,bundle,org.eclipse.cdt.gdb.ui,7.0.0.201202111925,"org.eclipse.cdt.gdb.ui",1377739288917
stopped,bundle,org.eclipse.cdt.dsf.gdb,4.0.2.201202111925,"org.eclipse.cdt.dsf.gdb",1377739288917
stopped,bundle,org.eclipse.cdt.launch,7.0.0.201202111925,"org.eclipse.cdt.launch",1377739288917
stopped,bundle,org.eclipse.cdt.debug.ui,7.1.2.201202111925,"org.eclipse.cdt.debug.ui",1377739288918
stopped,bundle,org.eclipse.cdt.dsf,2.2.0.201202111925,"org.eclipse.cdt.dsf",1377739288918
stopped,bundle,org.eclipse.cdt.debug.core,7.1.0.201202111925,"org.eclipse.cdt.debug.core",1377739288919
stopped,bundle,org.eclipse.cdt.managedbuilder.ui,8.0.2.201202111925,"org.eclipse.cdt.managedbuilder.ui",1377739288919
stopped,bundle,org.eclipse.cdt.make.ui,7.1.2.201202111925,"org.eclipse.cdt.make.ui",1377739288919
stopped,bundle,org.eclipse.cdt.managedbuilder.gnu.ui,8.0.2.201202111925,"org.eclipse.cdt.managedbuilder.gnu.ui",1377739288919
stopped,bundle,org.eclipse.cdt.managedbuilder.core,8.0.2.201202111925,"org.eclipse.cdt.managedbuilder.core",1377739289045
stopped,bundle,org.eclipse.cdt.make.core,7.1.2.201202111925,"org.eclipse.cdt.make.core",1377739289045
stopped,bundle,org.eclipse.cdt.codan.ui,2.0.1.201202111925,"org.eclipse.cdt.codan.ui",1377739289045
stopped,bundle,org.eclipse.cdt.ui,5.3.2.201202111925,"org.eclipse.cdt.ui",1377739289093
stopped,bundle,org.eclipse.cdt.core,5.3.2.201202111925,"org.eclipse.cdt.core",1377739289117
stopped,bundle,org.eclim.dltkruby,1.7.14,"org.eclim.dltkruby",1377739289117
stopped,bundle,org.eclipse.dltk.ruby.testing,3.0.0.v20110424,"org.eclipse.dltk.ruby.testing",1377739289117
stopped,bundle,org.eclipse.dltk.ruby.debug.ui,3.0.0.v20110424,"org.eclipse.dltk.ruby.debug.ui",1377739289117
stopped,bundle,org.eclipse.dltk.ruby.formatter,3.0.0.v20110424,"org.eclipse.dltk.ruby.formatter",1377739289117
stopped,bundle,org.eclipse.dltk.ruby.ui,3.0.0.v20110423,"org.eclipse.dltk.ruby.ui",1377739289117
stopped,bundle,org.eclipse.dltk.testing,3.0.0.v20110423,"org.eclipse.dltk.testing",1377739289117
stopped,bundle,org.eclim.pdt,1.7.14,"org.eclim.pdt",1377739289117
stopped,bundle,org.eclim.dltk,1.7.14,"org.eclim.dltk",1377739289118
stopped,bundle,org.eclipse.dltk.ruby.activestatedebugger,3.0.0.v20110424,"org.eclipse.dltk.ruby.activestatedebugger",1377739289118
stopped,bundle,org.eclipse.dltk.ruby.basicdebugger,3.0.0.v20110424,"org.eclipse.dltk.ruby.basicdebugger",1377739289118
stopped,bundle,org.eclipse.dltk.ruby.fastdebugger,3.0.0.v20110424,"org.eclipse.dltk.ruby.fastdebugger",1377739289118
stopped,bundle,org.eclipse.php.server.ui,3.0.1.v201201110400,"org.eclipse.php.server.ui",1377739289118
stopped,bundle,org.eclipse.php.debug.ui,3.0.1.v201201110400,"org.eclipse.php.debug.ui",1377739289118
stopped,bundle,org.eclipse.dltk.debug.ui,3.0.0.v20110423,"org.eclipse.dltk.debug.ui",1377739289118
stopped,bundle,org.eclipse.dltk.formatter,3.0.0.v20110609-1525,"org.eclipse.dltk.formatter",1377739289118
stopped,bundle,org.eclipse.dltk.validators.externalchecker,3.0.0.v20110423,"org.eclipse.dltk.validators.externalchecker",1377739289118
stopped,bundle,org.eclipse.dltk.validators.ui,3.0.0.v20110423,"org.eclipse.dltk.validators.ui",1377739289119
stopped,bundle,org.eclipse.php.debug.core,3.0.1.v201201110400,"org.eclipse.php.debug.core",1377739289119
stopped,bundle,org.eclipse.php.ui,3.0.1.v201201110400,"org.eclipse.php.ui",1377739289119
stopped,bundle,org.eclipse.dltk.ui,3.0.1.v20110823,"org.eclipse.dltk.ui",1377739289119
stopped,bundle,org.eclipse.egit.mylyn.ui,1.3.0.201202151440-r,"org.eclipse.egit.mylyn.ui",1377739289119
stopped,bundle,org.eclipse.egit.ui,1.3.0.201202151440-r,"org.eclipse.egit.ui",1377739289120
stopped,bundle,org.eclipse.egit.core,1.3.0.201202151440-r,"org.eclipse.egit.core",1377739289121
stopped,bundle,org.eclipse.equinox.p2.ui.sdk,1.0.200.v20110815-1419,"org.eclipse.equinox.p2.ui.sdk",1377739289122
stopped,bundle,org.eclipse.mylyn.java.tasks,3.8.3.v20130107-0100,"org.eclipse.mylyn.java.tasks",1377739289122
stopped,bundle,org.eclipse.mylyn.java.ui,3.8.3.v20130107-0100,"org.eclipse.mylyn.java.ui",1377739289122
stopped,bundle,org.eclipse.jdt.junit,3.7.0.v20110928-1453,"org.eclipse.jdt.junit",1377739289122
stopped,bundle,net.sf.eclipsecs.ui,5.5.0.201111092104,"net.sf.eclipsecs.ui",1377739289156
stopped,bundle,net.sf.eclipsecs.core,5.5.0.201111092104,"net.sf.eclipsecs.core",1377739289156
stopped,bundle,org.eclipse.jpt.jpa.db,2.0.0.v201105030000,"org.eclipse.jpt.jpa.db",1377739289156
stopped,bundle,org.eclipse.datatools.enablement.jdt.classpath,1.0.1.v201107221501,"org.eclipse.datatools.enablement.jdt.classpath",1377739289156
stopped,bundle,org.eclipse.jdt.apt.ui,3.3.300.v20110305-1450,"org.eclipse.jdt.apt.ui",1377739289156
stopped,bundle,org.eclipse.jdt.debug.ui,3.6.1.v20111006_r372,"org.eclipse.jdt.debug.ui",1377739289157
stopped,bundle,org.eclipse.wb.core.databinding.xml,1.5.2.r37x201303061518,"org.eclipse.wb.core.databinding.xml",1377739289157
stopped,bundle,org.eclipse.wb.swing.databinding,1.3.0.r37x201202021417,"org.eclipse.wb.swing.databinding",1377739289157
stopped,bundle,org.eclipse.wb.core.databinding,1.5.2.r37x201303061505,"org.eclipse.wb.core.databinding",1377739289157
stopped,bundle,org.eclipse.wb.swing.FormLayout,1.3.0.r37x201202021417,"org.eclipse.wb.swing.FormLayout",1377739289157
stopped,bundle,org.eclipse.wb.swing.MigLayout,1.3.0.r37x201202021417,"org.eclipse.wb.swing.MigLayout",1377739289158
stopped,bundle,org.eclipse.wb.swing.java6,1.3.0.r37x201202021417,"org.eclipse.wb.swing.java6",1377739289158
stopped,bundle,org.eclipse.wb.swing.jsr296,1.3.0.r37x201202021417,"org.eclipse.wb.swing.jsr296",1377739289158
stopped,bundle,org.eclipse.wb.swing,1.3.0.r37x201202021417,"org.eclipse.wb.swing",1377739289158
stopped,bundle,org.eclipse.wb.core.ui,1.5.2.r37x201303061516,"org.eclipse.wb.core.ui",1377739289158
stopped,bundle,org.eclipse.wb.core.xml,1.5.2.r37x201303061518,"org.eclipse.wb.core.xml",1377739289158
