<?xml version="1.0" encoding="UTF-8"?>
<<<<<<< HEAD
<session version="1.0">&#x0A;<refactoring comment="Move element &apos;Home_assistedPerson.java&apos; to &apos;EmergencyCall/src/com.example.emergencycall&apos;&#x0A;- Original project: &apos;EmergencyCall&apos;&#x0A;- Destination element: &apos;EmergencyCall/src/com.example.emergencycall&apos;&#x0A;- Original element: &apos;com.example.emergencycall.assisted_person.Home_assistedPerson.java&apos;&#x0A;- Update references to refactored element" description="Move compilation unit" destination="/src&lt;com.example.emergencycall" element1="/src&lt;com.example.emergencycall.assisted_person{Home_assistedPerson.java" files="0" flags="589830" folders="0" id="org.eclipse.jdt.ui.move" patterns="*" policy="org.eclipse.jdt.ui.moveResources" qualified="false" references="true" stamp="1378606256949" units="1" version="1.0"/>&#x0A;<refactoring comment="Move element &apos;Home_assistedPerson.java&apos; to &apos;EmergencyCall/src/com.example.emergencycall.assisted_person&apos;&#x0A;- Original project: &apos;EmergencyCall&apos;&#x0A;- Destination element: &apos;EmergencyCall/src/com.example.emergencycall.assisted_person&apos;&#x0A;- Original element: &apos;com.example.emergencycall.Home_assistedPerson.java&apos;&#x0A;- Update references to refactored element" description="Move compilation unit" destination="/src&lt;com.example.emergencycall.assisted_person" element1="/src&lt;com.example.emergencycall{Home_assistedPerson.java" files="0" flags="589830" folders="0" id="org.eclipse.jdt.ui.move" patterns="*" policy="org.eclipse.jdt.ui.moveResources" qualified="false" references="true" stamp="1378606596578" units="1" version="1.0"/>
=======
<session version="1.0">&#x0A;<refactoring comment="Move element &apos;CancelAlarm.java&apos; to &apos;EmergencyCall/src/com.example.emergencycall.assisted_person&apos;&#x0A;- Original project: &apos;EmergencyCall&apos;&#x0A;- Destination element: &apos;EmergencyCall/src/com.example.emergencycall.assisted_person&apos;&#x0A;- Original element: &apos;com.example.emergencycall.CancelAlarm.java&apos;&#x0A;- Update references to refactored element" description="Move compilation unit" destination="/src&lt;com.example.emergencycall.assisted_person" element1="/src&lt;com.example.emergencycall{CancelAlarm.java" files="0" flags="589830" folders="0" id="org.eclipse.jdt.ui.move" patterns="*" policy="org.eclipse.jdt.ui.moveResources" qualified="false" references="true" stamp="1378609531150" units="1" version="1.0"/>&#x0A;<refactoring comment="Move element &apos;CarerListActivity.java&apos; to &apos;EmergencyCall/src/com.example.emergencycall.assisted_person&apos;&#x0A;- Original project: &apos;EmergencyCall&apos;&#x0A;- Destination element: &apos;EmergencyCall/src/com.example.emergencycall.assisted_person&apos;&#x0A;- Original element: &apos;com.example.emergencycall.CarerListActivity.java&apos;&#x0A;- Update references to refactored element" description="Move compilation unit" destination="/src&lt;com.example.emergencycall.assisted_person" element1="/src&lt;com.example.emergencycall{CarerListActivity.java" files="0" flags="589830" folders="0" id="org.eclipse.jdt.ui.move" patterns="*" policy="org.eclipse.jdt.ui.moveResources" qualified="false" references="true" stamp="1378609539832" units="1" version="1.0"/>&#x0A;<refactoring comment="Move element &apos;Home_assistedPerson.java&apos; to &apos;EmergencyCall/src/com.example.emergencycall.assisted_person&apos;&#x0A;- Original project: &apos;EmergencyCall&apos;&#x0A;- Destination element: &apos;EmergencyCall/src/com.example.emergencycall.assisted_person&apos;&#x0A;- Original element: &apos;com.example.emergencycall.Home_assistedPerson.java&apos;&#x0A;- Update references to refactored element" description="Move compilation unit" destination="/src&lt;com.example.emergencycall.assisted_person" element1="/src&lt;com.example.emergencycall{Home_assistedPerson.java" files="0" flags="589830" folders="0" id="org.eclipse.jdt.ui.move" patterns="*" policy="org.eclipse.jdt.ui.moveResources" qualified="false" references="true" stamp="1378609546649" units="1" version="1.0"/>&#x0A;<refactoring accessors="true" comment="Delete element from project &apos;EmergencyCall&apos;&#x0A;- Original project: &apos;EmergencyCall&apos;&#x0A;- Original element: &apos;com.example.emergencycall.ManageContactTest.java&apos;" description="Delete element" element1="/src&lt;com.example.emergencycall{ManageContactTest.java" elements="1" flags="589830" id="org.eclipse.jdt.ui.delete" resources="0" stamp="1378619997915" subPackages="false" version="1.0"/>&#x0A;<refactoring accessors="true" comment="Delete element from project &apos;EmergencyCall&apos;&#x0A;- Original project: &apos;EmergencyCall&apos;&#x0A;- Original element: &apos;EmergencyCall/gen&apos;" description="Delete element" element1="/gen" elements="1" flags="589830" id="org.eclipse.jdt.ui.delete" resources="0" stamp="1378620004130" subPackages="false" version="1.0"/>&#x0A;<refactoring accessors="true" comment="Delete element from project &apos;EmergencyCall&apos;&#x0A;- Original project: &apos;EmergencyCall&apos;&#x0A;- Original element: &apos;com.example.emergencycall.assisted_person.Home_assistedPersonTest.java&apos;" description="Delete element" element1="/src&lt;com.example.emergencycall.assisted_person{Home_assistedPersonTest.java" elements="1" flags="589830" id="org.eclipse.jdt.ui.delete" resources="0" stamp="1378644773097" subPackages="false" version="1.0"/>
>>>>>>> terry
</session>